<svg width="44" height="44" viewBox="0 0 44 44" fill="none" xmlns="http://www.w3.org/2000/svg">
<path d="M11.8383 21.9997C11.8383 21.5857 12.1743 21.2497 12.5883 21.2497H28.7772L23.0573 15.5298C22.7643 15.2368 22.7643 14.7617 23.0573 14.4687C23.2033 14.3227 23.3953 14.2488 23.5873 14.2488C23.7793 14.2488 23.9713 14.3217 24.1173 14.4687L31.1173 21.4687C31.1863 21.5377 31.2412 21.6206 31.2792 21.7126C31.3552 21.8956 31.3552 22.1026 31.2792 22.2856C31.2412 22.3776 31.1863 22.4608 31.1173 22.5298L24.1173 29.5298C23.8243 29.8228 23.3493 29.8228 23.0563 29.5298C22.7633 29.2368 22.7633 28.7617 23.0563 28.4687L28.7763 22.7488L12.5883 22.7488C12.1743 22.7498 11.8383 22.4137 11.8383 21.9997Z" fill="white"/>
<rect x="0.830322" y="-0.830322" width="41.5161" height="41.5161" rx="20.7581" transform="matrix(1 0 0 -1 0 41.9277)" stroke="white" stroke-width="1.66064"/>
</svg>
