<svg width="60" height="60" viewBox="0 0 60 60" fill="none" xmlns="http://www.w3.org/2000/svg">
<path opacity="0.4" d="M42.2108 12.7871H34.8531C33.0202 12.7992 31.28 11.9839 30.1184 10.5688L27.6955 7.21906C26.5534 5.79153 24.8132 4.97236 22.983 5.00071H17.7815C8.44547 5.00071 5.00003 10.48 5.00003 19.7971V29.8684C4.98841 30.976 54.9891 30.9745 54.9923 29.8684V26.9402C55.0368 17.6231 51.6802 12.7871 42.2108 12.7871Z" fill="#DFE7AC"/>
<path fill-rule="evenodd" clip-rule="evenodd" d="M52.0804 16.3585C52.8802 17.2937 53.4984 18.3695 53.9031 19.5307C54.6996 21.9174 55.0683 24.4255 54.9924 26.94V40.0726C54.9892 41.1788 54.9074 42.2833 54.7478 43.3779C54.4439 45.3098 53.7643 47.1636 52.7473 48.8351C52.2798 49.6425 51.7122 50.3878 51.0579 51.0534C48.0958 53.7719 44.1625 55.187 40.1436 54.9799H19.8266C15.8013 55.1855 11.8616 53.771 8.89008 51.0534C8.24357 50.3865 7.68348 49.6412 7.22293 48.8351C6.21194 47.1648 5.54678 45.3092 5.26681 43.3779C5.08878 42.2851 4.99958 41.1798 5.00006 40.0726V26.94C4.99963 25.8432 5.05899 24.7472 5.17789 23.6568C5.2029 23.4655 5.2404 23.2774 5.27751 23.0911C5.33939 22.7806 5.40018 22.4756 5.40018 22.1705C5.62583 20.8547 6.03746 19.5775 6.62276 18.3772C8.35659 14.6725 11.9132 12.7869 17.7371 12.7869H42.1886C45.4506 12.5347 48.6883 13.5166 51.2579 15.5377C51.5539 15.7886 51.8289 16.0631 52.0804 16.3585ZM17.4259 38.8527H42.5887H42.6332C43.1853 38.8767 43.7241 38.6791 44.1292 38.3039C44.5343 37.9288 44.7721 37.4074 44.7894 36.8562C44.8206 36.3716 44.6611 35.8941 44.3448 35.5252C43.981 35.0294 43.4045 34.7335 42.7888 34.7266H17.4259C16.2842 34.7266 15.3586 35.6502 15.3586 36.7896C15.3586 37.929 16.2842 38.8527 17.4259 38.8527Z" fill="#B2C535"/>
</svg>
