<svg width="24" height="24" viewBox="0 0 24 24" fill="none" xmlns="http://www.w3.org/2000/svg">
<path fill-rule="evenodd" clip-rule="evenodd" d="M11.9932 5.21785C9.9938 2.88043 6.65975 2.25167 4.15469 4.39204C1.64964 6.53242 1.29697 10.111 3.2642 12.6424C4.89982 14.7471 9.84977 19.1861 11.4721 20.6229C11.6536 20.7836 11.7444 20.864 11.8502 20.8956C11.9426 20.9231 12.0437 20.9231 12.1361 20.8956C12.2419 20.864 12.3327 20.7836 12.5142 20.6229C14.1365 19.1861 19.0865 14.7471 20.7221 12.6424C22.6893 10.111 22.3797 6.5099 19.8316 4.39204C17.2835 2.27419 13.9925 2.88043 11.9932 5.21785Z" stroke="#000000" stroke-width="2" stroke-linecap="round" stroke-linejoin="round"/>
</svg>
