<svg width="362" height="64" viewBox="0 0 362 64" fill="none" xmlns="http://www.w3.org/2000/svg">
<g clip-path="url(#clip0_479_999)">
<path d="M0 36.4289C0.0326756 36.3232 0.0558303 36.2147 0.0691869 36.1049C0.114895 34.3858 0.341935 32.6764 0.746527 31.0051C1.04749 29.7664 1.39481 28.5394 1.72552 27.293L0.89943 27.1393C0.98453 26.8166 1.17064 26.746 1.46054 26.8408C1.75043 26.9357 1.95038 26.8907 2.08322 26.5431C3.02961 24.0604 4.28487 21.707 5.81931 19.5385C6.46206 18.6286 7.14632 17.7416 7.87486 16.8996C8.77429 15.861 9.70347 14.8341 10.6915 13.8765C12.123 12.4799 13.6636 11.2 15.2986 10.0487C16.1787 9.43312 17.067 8.82863 17.9699 8.20752L16.8007 6.54222L17.3479 6.3345L18.4729 7.88831C19.6698 7.26097 20.8287 6.62116 22.016 6.03814C24.3226 4.91126 26.7222 3.98574 29.1879 3.27187C31.1943 2.68538 33.227 2.17714 35.3019 1.88009C36.3695 1.72706 37.4391 1.58511 38.5108 1.47017C39.2158 1.39469 39.9278 1.32753 40.6356 1.34276C41.6408 1.36423 42.642 1.46394 43.6486 1.53318C43.8631 1.54772 44.0769 1.59411 44.29 1.59065C44.3557 1.59065 44.4491 1.48263 44.4782 1.40439C44.6106 1.06857 44.726 0.726305 44.8241 0.378897C44.9072 0.0693805 45.0469 -0.0947257 45.4178 0.054147L44.8899 1.65574C48.7803 2.22284 52.5342 3.49784 55.966 5.41772C59.4579 7.36968 62.5339 9.8382 65.0641 12.9888C65.2398 12.8814 65.3934 12.788 65.5484 12.6945C66.0195 12.4043 66.0189 12.4043 66.3945 12.8551L65.4398 13.4492C65.8231 14.0219 66.2008 14.5571 66.5516 15.1111C67.8338 17.1309 68.8332 19.3172 69.5218 21.6088C69.9757 23.1038 70.3306 24.6216 70.4952 26.1789C70.572 26.9038 70.6336 27.633 70.7028 28.3566C70.7181 28.4184 70.7413 28.478 70.772 28.5338V31.719C70.7435 31.8136 70.7204 31.9098 70.7028 32.0071C70.5361 33.3725 70.4171 34.7456 70.1929 36.1014C70.0282 37.0999 69.7273 38.0762 69.4747 39.1135L70.6426 39.4382L70.5451 39.9922L69.2713 39.709C69.0562 40.2899 68.85 40.8736 68.6244 41.449C67.684 43.8285 66.4555 46.0835 64.9665 48.1636C63.7247 49.9194 62.3395 51.5692 60.825 53.0957C59.8882 54.0388 58.8801 54.912 57.8832 55.7962C56.4579 57.0564 54.913 58.1595 53.3168 59.1891C52.7571 59.5485 52.1842 59.8947 51.6134 60.2513L51.9691 60.8433L51.6231 61.0601L38.7758 40.1867C37.693 40.524 36.6711 40.8882 35.6243 41.1506C35.0238 41.3009 34.3831 41.3203 33.7563 41.3348C33.1924 41.348 32.8569 40.8501 33.0347 40.2781C33.4498 38.9293 33.8884 37.5881 34.3278 36.2468C34.5174 35.6679 34.7291 35.0967 34.9332 34.5227C35.1269 33.977 35.3919 33.7478 35.9516 33.8039C36.8088 33.8898 37.6605 34.0366 38.5115 34.1709C39.4299 34.3159 40.347 34.4696 41.2631 34.6321C41.7419 34.7165 42.2227 34.7996 42.6911 34.9277C43.266 35.0849 43.4708 35.5004 43.1699 36.0232C42.8492 36.5708 42.4756 37.0857 42.0546 37.5604C41.2354 38.4951 40.2419 39.2263 39.1736 39.8502L51.5968 60.1648C52.5537 59.5319 53.5029 58.9496 54.4017 58.2952C55.4595 57.5273 56.516 56.7476 57.495 55.8842C58.7016 54.8199 59.8771 53.7106 60.9786 52.5383C62.7063 50.7015 64.2368 48.6885 65.5449 46.5322C66.5222 44.9092 67.3436 43.1973 67.9983 41.4193C68.2232 40.8155 68.4134 40.1992 68.6341 39.5553C57.2501 36.9766 45.8419 34.5767 34.3326 32.4772L23.4032 63.9995L23.0088 63.9247L33.7369 32.3782L31.5721 31.9974C30.0237 31.7239 28.4766 31.4434 26.9269 31.1796C25.8891 31.0023 24.845 30.8514 23.8051 30.6804C22.7445 30.5059 21.6866 30.3148 20.6225 30.143C19.6816 29.9907 18.7372 29.8612 17.7963 29.711C16.7121 29.5379 15.6307 29.3461 14.5445 29.1743C13.7274 29.0448 12.9061 28.9368 12.0883 28.8122C11.2477 28.6834 10.4099 28.5408 9.56924 28.414C8.87391 28.3088 8.17582 28.2215 7.4798 28.1198C6.63849 27.9965 5.79786 27.8636 4.95724 27.7389C4.23977 27.6323 3.52369 27.5111 2.80276 27.4349C2.2043 27.3712 2.21191 27.4003 1.98982 28.002C1.39273 29.6209 1.00183 31.2946 0.69948 32.9875C0.556658 33.8057 0.462857 34.6316 0.418581 35.4609C0.345935 36.8257 0.265678 38.1939 0.294736 39.558C0.317568 40.6479 0.490535 41.7357 0.616455 42.8214C0.689102 43.4502 0.800493 44.0747 0.824016 44.7194C0.77351 44.4826 0.711242 44.2479 0.673881 44.009C0.512675 42.9994 0.3404 41.994 0.214479 40.981C0.130071 40.2989 0.11485 39.6127 0.0650357 38.9286C0.0515921 38.8769 0.0296115 38.8277 0 38.7832C0 37.9984 0 37.2137 0 36.4289ZM43.6902 27.0043C44.1745 27.8255 44.5453 28.6619 44.6519 29.5863C44.721 30.1645 44.6318 30.7115 44.2284 31.1789C43.5366 31.9794 42.6254 31.908 41.7239 31.8201C41.0832 31.7578 40.4501 31.6124 39.8136 31.5092C38.9405 31.3652 38.0597 31.2613 37.197 31.0695C36.5252 30.9206 36.2367 30.6776 36.4843 29.9409C37.0563 28.2398 37.646 26.5449 38.2535 24.8563C38.5081 24.1452 38.9861 23.8066 39.568 23.9029C39.8781 23.9629 40.1786 24.0649 40.4612 24.2061C41.582 24.7324 42.5091 25.5114 43.2861 26.4462L64.2698 13.4596C61.7998 10.4275 58.7964 8.03995 55.3731 6.16623C51.9891 4.31537 48.4025 3.05653 44.6117 2.47766L34.5596 31.9302C46.0557 33.9182 57.4494 36.2704 68.8285 38.9833C69.0458 37.9267 69.3038 36.915 69.4512 35.8874C69.6588 34.4666 69.8511 33.0367 69.9162 31.6041C69.9736 30.3466 69.8926 29.0767 69.7861 27.8192C69.6949 26.6403 69.531 25.4681 69.2955 24.3093C68.6964 21.4703 67.689 18.7816 66.198 16.2868C65.7746 15.5778 65.3041 14.8964 64.8447 14.2095C64.7375 14.0496 64.6372 13.9325 64.3798 14.0994C62.446 15.325 60.495 16.5229 58.5501 17.7298C55.5359 19.6017 52.5226 21.475 49.5102 23.3496C47.5792 24.5544 45.6544 25.7724 43.6902 27.0043ZM2.35858 26.9475C2.48796 26.971 2.59659 26.9952 2.70452 27.0098C3.27808 27.0867 3.85233 27.1573 4.42589 27.2383C5.33708 27.3671 6.24689 27.5035 7.15739 27.633C7.86655 27.7341 8.5771 27.8241 9.28558 27.928C10.1608 28.0561 11.0339 28.1959 11.9091 28.3254C12.7512 28.4494 13.5945 28.5608 14.4359 28.6875C15.4439 28.8392 16.4506 29.0026 17.4586 29.1563C18.266 29.2796 19.0748 29.3904 19.8802 29.5171C20.9872 29.6916 22.0942 29.8806 23.2011 30.0551C24.2763 30.2247 25.3549 30.3757 26.4301 30.5502C27.481 30.7212 28.5285 30.9144 29.5781 31.0938C30.7868 31.3015 31.9996 31.4919 33.2035 31.7114C33.9237 31.8423 33.9244 31.8617 34.1458 31.2212C35.6343 26.9267 37.1211 22.6311 38.6063 18.3343C39.3556 16.176 40.1229 14.0239 40.8736 11.8663C41.6116 9.73918 42.3461 7.61018 43.0772 5.47934C43.4231 4.4677 43.769 3.45537 44.135 2.39526C43.3248 2.31355 42.559 2.18753 41.791 2.16814C39.9693 2.12798 38.1448 2.0989 36.339 2.43126C35.0141 2.67708 33.6719 2.84672 32.3601 3.14793C28.6426 3.99745 25.0417 5.29483 21.6361 7.01169C20.727 7.47147 19.8373 7.96932 18.9074 8.4658L30.1399 24.3675C31.2981 23.7914 32.522 23.3538 33.8296 23.2263C34.5063 23.1571 34.9366 23.3586 34.8612 24.0753C34.8409 24.2325 34.8045 24.3873 34.7526 24.5371C34.5021 25.3106 34.2503 26.0833 33.9915 26.854C33.7037 27.7091 33.4214 28.5671 33.1094 29.416C33.0546 29.5816 32.943 29.7224 32.7942 29.8133C32.6455 29.9042 32.4693 29.9393 32.2971 29.9125C31.7437 29.8515 31.1985 29.7615 30.6526 29.6667C29.5712 29.4797 28.4891 29.2934 27.4119 29.0815C26.8708 28.9749 26.3222 28.8593 25.8095 28.6612C25.1937 28.423 25.1086 27.9563 25.6068 27.534C26.3948 26.8671 27.2188 26.2419 28.047 25.6256C28.505 25.2849 29.0032 24.9976 29.4999 24.6756C28.4088 23.1079 27.342 21.5707 26.271 20.0363C24.7115 17.8035 23.1499 15.5722 21.5863 13.3426C20.5716 11.8917 19.5555 10.4411 18.5379 8.99066C18.4349 8.84248 18.3491 8.81063 18.1858 8.91311C16.2908 10.0999 14.4573 11.3705 12.7525 12.824C11.4691 13.9187 10.1795 15.0072 9.08563 16.2979C8.19312 17.3504 7.28677 18.3953 6.45168 19.4928C4.72339 21.7625 3.41853 24.2719 2.35858 26.9502V26.9475Z" fill="#112437"/>
<path d="M39.4561 48.964C39.205 48.687 38.9434 48.4336 38.7352 48.1448C38.6162 47.98 38.5843 47.7529 38.5131 47.5542C38.7096 47.6089 38.9116 47.6497 39.1019 47.7224C39.2658 47.7978 39.4248 47.8836 39.5779 47.9793C39.4741 47.469 39.1586 47.1048 38.8431 46.762C38.6119 46.5261 38.345 46.3279 38.0523 46.1748C37.6316 45.9394 37.3438 46.0038 37.3777 46.6187C36.5523 46.5564 36.5475 46.5585 36.4652 46.9649C36.7737 46.9372 36.8623 46.9961 36.9972 47.3312C36.7391 47.3658 36.4831 47.3908 36.2313 47.4372C35.9504 47.4891 35.8473 47.6864 36.0002 47.9219C36.3178 48.4107 36.7917 48.7119 37.3487 48.9861C37.2933 48.7784 37.2601 48.617 37.2103 48.464C37.1134 48.1801 37.3009 48.1635 37.476 48.2057C37.651 48.248 37.8025 48.3525 37.9741 48.4349C37.943 48.5402 37.9112 48.6344 37.8876 48.7299C37.8288 48.9723 37.7202 49.2001 37.898 49.4577C38.0447 49.6702 38.0018 49.9154 37.8288 50.1224C37.5957 50.4028 37.4137 50.7539 36.9425 50.7532C36.9764 50.6147 36.9951 50.5081 37.0297 50.407C37.13 50.1037 37.1024 49.826 36.8069 49.6599C36.5343 49.5061 36.2576 49.5408 36.0237 49.77C35.92 49.8758 35.8519 50.0114 35.8288 50.1579C35.8057 50.3043 35.8289 50.4544 35.8951 50.587C36.1766 51.0973 36.149 51.0759 35.7747 51.5564C35.3796 52.064 35.0447 52.6179 34.6739 53.1656C34.3017 53.0818 33.9073 52.9953 33.515 52.9011C33.4541 52.8866 33.3628 52.843 33.3524 52.7973C33.2763 52.4462 33.0529 52.5736 32.8515 52.6332C32.1825 52.8312 31.7777 53.3457 31.4104 53.8844C31.2463 54.1209 31.1304 54.3875 31.0693 54.6689C31.0077 54.9805 31.2554 55.1356 31.5134 55.2713C31.7819 55.4098 31.8871 55.2166 32.031 55.0809C32.1002 55.0179 32.161 54.95 32.2268 54.8849C32.7228 54.3954 33.057 54.4259 33.3995 55.0373C33.6492 55.4853 33.7676 55.7221 33.3158 56.2352C32.7208 56.9103 32.4163 57.7461 32.1652 58.6019C31.9971 59.1822 31.932 59.2099 31.3426 59.1288C30.7787 59.0513 30.212 58.9973 29.6475 58.928C29.4697 58.9066 29.3631 58.9724 29.332 59.1489C29.2995 59.3366 29.2725 59.5256 29.233 59.7825C29.5596 59.7486 29.8377 59.7056 30.1173 59.6939C30.4632 59.6793 30.8091 59.6939 31.1551 59.689C32.5824 59.6676 34.009 59.6336 35.4363 59.6198C36.9661 59.608 38.4965 59.6426 40.0255 59.6087C41.0882 59.5852 42.1489 59.4792 43.2081 59.4121C43.334 59.4044 43.4606 59.4121 43.6551 59.4121C43.278 59.8746 42.8041 60.1176 42.3474 60.3731C41.273 60.9825 40.0746 61.2318 38.8825 61.4873C37.6905 61.7428 36.5004 62.0177 35.3 62.233C34.3958 62.3957 33.479 62.4996 32.5637 62.5903C31.7902 62.6672 31.0098 62.7392 30.2342 62.7212C29.4081 62.7025 28.5737 62.6305 27.8085 62.2482C26.8876 61.7864 26.6323 61.0995 26.9153 60.1446C27.4508 58.3249 28.0762 56.5315 28.6567 54.725C29.186 53.0777 29.6945 51.4242 30.2314 49.7789C30.7067 48.3214 31.2851 46.9074 32.2441 45.6888C33.1642 44.5199 34.2885 43.6288 35.8086 43.4328C36.9218 43.2895 37.9444 43.6225 38.8646 44.2693C40.0463 45.1002 40.8385 46.2441 41.4937 47.4988C42.4955 49.4085 43.5112 51.3113 44.4922 53.2321C45.0229 54.2708 45.2692 55.3953 45.1626 56.5662C45.0838 57.4317 44.7378 58.2051 44.2044 58.8948C44.0183 59.1358 43.772 59.0644 43.5409 59.0596C43.1396 59.0506 42.739 59.0014 42.3377 58.9994C40.9429 58.9917 39.5481 58.9994 38.1533 58.9994H37.7188L39.0929 57.0799C39.3309 57.0917 39.5018 57.2434 39.5772 57.5328C39.6249 57.7177 39.7066 57.8942 39.7674 58.0763C39.9819 58.712 40.0352 58.7494 40.7271 58.7058C40.7374 58.4219 40.8149 58.1657 40.4337 57.9815C40.2815 57.9081 40.2587 57.5459 40.1964 57.3105C40.1535 57.1471 40.168 56.9643 40.1106 56.8099C40.0615 56.6769 39.9556 56.4748 39.8595 56.4637C39.5751 56.4367 39.5682 56.285 39.562 56.0669C39.555 55.7899 39.5087 55.513 39.4748 55.1903C39.6552 55.2579 39.8186 55.3645 39.9533 55.5023C40.0881 55.6401 40.1909 55.806 40.2545 55.988C40.413 56.4117 40.5188 56.8611 40.7236 57.2593C40.8371 57.4802 41.082 57.6747 41.3138 57.7828C41.6452 57.9351 41.8956 57.7267 42.1129 57.413C41.6175 57.0509 41.4065 56.5267 41.257 55.9547C41.1131 55.4008 40.7437 54.9999 40.2725 54.6917C40.1992 54.6381 40.117 54.5978 40.0297 54.5726C39.3378 54.4189 38.6895 54.1323 38.0295 53.8802C37.5133 53.6843 37.4185 53.5887 37.4234 53.0396C37.4275 52.5341 37.3473 52.0065 37.7389 51.5855C37.934 51.3778 38.1014 51.132 38.3201 50.9499C38.6881 50.6445 38.7781 50.2692 38.7435 49.817C38.7227 49.5401 38.7691 49.2631 38.7864 48.964C39.0209 49.0997 39.2887 49.3448 39.4561 48.964Z" fill="#112437"/>
<path d="M20.879 57.0009C21.0361 56.7032 21.2063 56.4692 21.2879 56.2074C21.4263 55.7629 21.1876 55.3156 20.6099 54.9929C20.0882 54.7014 19.532 54.4701 18.9861 54.2243C18.5163 54.0131 18.1212 53.7292 17.9074 53.2403C17.7774 52.944 17.8438 52.8831 18.1579 52.829C18.573 52.7598 18.9743 52.6213 19.4206 52.4994C19.6683 52.7875 19.7706 52.784 20.0384 52.3887C20.2169 52.1255 20.347 51.8202 20.5621 51.5944C20.7386 51.4096 20.998 51.2905 21.2395 51.1859C21.3869 51.1222 21.5702 51.1409 21.7632 51.1167C21.8179 51.2863 21.8663 51.4705 21.9383 51.6457C21.9625 51.7045 22.0427 51.7398 22.0981 51.7842C22.1299 51.7073 22.2067 51.6131 22.1853 51.557C22.1237 51.4006 22.0213 51.2593 21.9085 51.0723L22.5935 50.8584L22.3063 50.2878C22.1624 50.3737 22.0469 50.4395 21.9341 50.5108C21.6345 50.6991 21.546 50.6659 21.4408 50.3245C21.4083 50.2179 21.3716 50.1126 21.3246 49.9783L21.0831 50.1029L21.4526 50.7102C21.245 50.8404 21.0375 50.9803 20.823 51.1042C20.7918 51.1203 20.7571 51.1288 20.722 51.1288C20.6868 51.1288 20.6522 51.1203 20.621 51.1042C20.4196 50.9062 20.2058 50.9789 20.037 51.1042C19.8253 51.2641 19.6482 51.2178 19.4503 51.1104C19.3119 51.035 19.2255 51.0412 19.0746 51.1693C18.8927 51.3272 18.6104 51.386 18.3613 51.4338C18.3039 51.4449 18.1427 51.2413 18.1351 51.1291C18.1074 50.7137 18.1282 50.2982 18.1233 49.8828C18.1164 49.335 17.8466 48.9777 17.329 48.8282C17.21 48.7936 17.0848 48.7756 16.97 48.7292C16.5943 48.5782 16.5548 48.3629 16.8316 48.07C17.347 47.534 17.2737 47.1006 16.5887 46.8187C16.312 46.7045 16.0034 46.6553 15.7045 46.611C15.2742 46.5459 14.967 46.7585 14.794 47.1338C14.711 47.2998 14.6859 47.4889 14.7227 47.6709C14.7596 47.8529 14.8563 48.0173 14.9974 48.1378C15.5509 48.6315 15.407 48.8607 14.7331 48.9764C14.0178 49.0989 13.676 49.5608 13.5411 50.2407C13.4262 50.8155 13.2353 51.3777 13.155 51.9566C13.0858 52.4357 13.2629 52.6324 13.7085 52.8131C13.7806 52.8457 13.856 52.8705 13.9333 52.8872C14.5872 53.0001 14.6716 53.0949 14.354 53.8656C14.1603 54.3358 13.8877 54.7734 13.7036 55.2463C13.5002 55.7705 13.6767 56.2441 14.0226 56.663C14.0558 56.7032 14.0821 56.7496 14.152 56.8521C13.6628 56.8521 13.229 56.8777 12.8021 56.8368C12.67 56.8244 12.5344 56.6478 12.4341 56.5197C11.4329 55.2373 10.4671 53.93 9.75307 52.4586C9.2909 51.5058 8.891 50.5323 8.92283 49.4417C8.94981 48.4653 9.41406 47.7106 10.1786 47.1663C10.8793 46.6855 11.6085 46.2476 12.3621 45.8549C14.6176 44.6397 16.8952 43.4639 19.1424 42.239C20.2349 41.6442 21.3564 41.1554 22.5859 40.9497C23.9316 40.7247 25.2094 40.913 26.2528 41.8575C26.8346 42.3823 27.1702 43.0852 27.3196 43.8655C27.6296 45.4934 27.2504 47.0244 26.6637 48.5207C25.6003 51.2261 24.5155 53.9217 23.459 56.6298C23.3621 56.8777 23.212 56.9102 23.0197 56.9158C22.5817 56.9275 22.1438 56.9109 21.7051 56.9234C21.4477 56.9338 21.1814 56.9732 20.879 57.0009ZM21.7937 43.3171L21.7245 43.4189C21.8068 43.5865 21.8878 43.7547 21.9722 43.9209C22.2946 44.5545 22.0012 45.3951 21.4028 45.5738C21.0582 45.6691 20.7062 45.7347 20.3504 45.7697C20.118 45.7967 20.0446 45.8189 20.111 46.1021C20.2494 46.683 21.3875 47.1407 21.9058 47.0549C22.4807 46.9579 22.9152 46.6346 23.2611 46.1983C23.5981 45.7725 23.8202 45.2677 23.551 44.7442C23.3633 44.3824 23.1044 44.0624 22.79 43.8032C22.5125 43.5747 22.1313 43.4736 21.7937 43.3171Z" fill="#112437"/>
<path d="M46.7516 49.4601C45.6543 47.6446 44.4982 45.8879 43.5075 44.0418C42.7298 42.5933 42.6904 41.045 43.6583 39.6103C44.3958 38.5169 45.4994 37.9485 46.7371 37.6078C47.9671 37.2793 49.2517 37.2098 50.5099 37.4035C52.3593 37.6708 54.1996 37.9955 56.0448 38.2933C57.4978 38.528 58.9541 38.7427 60.4036 38.9975C61.4151 39.1754 62.4343 39.3472 63.3454 39.8796C64.0179 40.2723 64.3597 40.7881 64.2566 41.5899L64.0179 41.6426C63.9993 41.6176 63.9757 41.6017 63.9737 41.5823C63.9135 41.1475 63.6602 40.9342 63.1856 40.9294C62.8037 40.9252 62.4246 40.9183 62.0399 40.9294C61.6552 40.9404 61.4103 41.2417 61.4732 41.592C61.2373 41.6176 60.9758 41.5879 60.7703 41.6813C60.3946 41.8524 60.0604 42.11 59.6149 42.0913C59.5346 42.0913 59.4509 42.1605 59.3693 42.2C59.6107 42.8052 59.61 42.7975 60.295 42.7435C60.4195 42.7338 60.5537 42.8606 60.6797 42.8543C61.2124 42.8266 61.7451 42.7851 62.271 42.7158C62.3685 42.7034 62.5152 42.5483 62.5166 42.4576C62.518 42.3669 62.3948 42.2263 62.2924 42.164C62.0634 42.0255 61.7583 42.085 61.5085 42.2789C61.6517 42.4776 61.6414 42.4679 61.7791 42.3322C61.8501 42.2733 61.9409 42.2438 62.033 42.2498C62.0876 42.254 62.1886 42.3675 62.1776 42.3952C62.143 42.4811 62.0766 42.594 62.0011 42.6141C61.8628 42.6501 61.6877 42.6743 61.5715 42.6141C61.5057 42.5785 61.4484 42.5291 61.4034 42.4694C61.3584 42.4096 61.3268 42.3409 61.3107 42.2678C61.3003 42.1737 61.4435 42.0137 61.5542 41.9646C61.7618 41.8738 61.9292 41.8385 61.9693 41.5401C62.0212 41.144 62.8328 41.0104 63.149 41.3178C63.2181 41.3871 63.2437 41.5948 63.1918 41.6592C63.0865 41.774 62.9452 41.8495 62.7913 41.8732C62.6965 41.8863 62.5754 41.7762 62.4855 41.698C62.4695 41.6841 62.5629 41.4902 62.5851 41.4951C62.7051 41.5286 62.8211 41.575 62.931 41.6336C62.9275 41.5775 62.9177 41.522 62.902 41.4681C62.7192 41.4578 62.5358 41.472 62.3568 41.5103C62.3159 41.5214 62.273 41.7693 62.3222 41.8205C62.4453 41.95 62.5782 42.1294 62.821 41.9964C63.14 41.8219 63.4797 41.734 63.8138 41.9549C63.9155 42.0241 64.0567 42.157 64.0435 42.2388C64.0221 42.371 63.9052 42.5005 63.7952 42.6009C63.758 42.6264 63.7157 42.6435 63.6713 42.6511C63.6268 42.6586 63.5813 42.6564 63.5378 42.6445C63.4094 42.5948 63.2859 42.5332 63.169 42.4603C63.2105 42.3911 63.2562 42.2526 63.2936 42.2526C63.4146 42.2602 63.5322 42.3177 63.746 42.3862C63.8941 42.3073 63.7377 42.1924 63.6194 42.1238C63.5399 42.0774 63.4181 42.0954 63.3157 42.0961C63.0846 42.0961 62.8549 42.1591 62.8272 42.4202C62.7947 42.7228 63.0791 42.7352 63.2776 42.7795C63.4305 42.8135 63.5973 42.7865 63.8422 42.7865C63.5032 43.321 63.1829 43.7967 62.8937 44.2904C62.3059 45.309 61.5734 46.2366 60.7191 47.0442C59.8889 47.8191 59.0372 48.5676 58.1889 49.3189C58.1095 49.3995 58.0079 49.4548 57.897 49.4776C57.7862 49.5004 57.6711 49.4897 57.5663 49.447C57.1161 49.2982 56.656 49.1813 56.1894 49.0973C56.0798 49.0788 55.9755 49.037 55.8835 48.9746C55.7914 48.9122 55.7139 48.8308 55.656 48.7358C54.9641 47.7304 54.266 46.7236 53.5451 45.7369C53.056 45.0666 52.526 44.4268 52.0092 43.7773C51.8832 43.6195 51.8708 43.4796 52.0092 43.3252C52.3018 42.9894 52.5959 42.6549 52.8782 42.3101C52.9383 42.236 53.0048 42.0684 52.9722 42.0331C52.8339 41.8905 52.7135 41.9749 52.6056 42.1072C52.3284 42.4612 52.0235 42.7926 51.6937 43.0981C51.7086 43.0338 51.7292 42.971 51.7552 42.9104C52.0534 42.3523 52.3586 41.7977 52.6547 41.2375C52.8249 40.9148 52.8187 40.9114 52.5979 40.5963L51.3851 42.8869L51.2557 42.8301C51.363 42.4236 51.4591 42.0144 51.5802 41.6121C51.7463 41.0582 51.9351 40.5174 52.1053 39.9676C52.1323 39.8803 52.1088 39.7779 52.1088 39.6823L51.9663 39.6525L51.0668 42.5386C50.9015 42.3488 50.7382 42.1695 50.5825 41.9846C50.3155 41.6592 50.0712 41.3137 49.7841 41.0083C49.6561 40.8698 49.4465 40.811 49.2742 40.7161L49.1725 40.8525C49.398 41.135 49.6284 41.4134 49.8478 41.7007C50.1985 42.1605 50.5936 42.6009 50.8614 43.1036C50.9644 43.2982 50.8614 43.7268 50.6995 43.9186C49.4216 45.4419 48.5422 47.227 47.4096 48.8438C47.3951 48.8614 47.3868 48.8834 47.3861 48.9062C47.4491 49.3618 47.0748 49.3389 46.7516 49.4601ZM56.2247 42.9873C55.5792 43.0351 55.5799 43.0357 55.0977 43.5544C55.0571 43.5905 55.0052 43.6113 54.951 43.6132C54.7434 43.625 54.5089 43.5745 54.3283 43.6479C54.1477 43.7212 53.9346 43.8909 53.8599 44.0695C53.8239 44.1554 54.044 44.4338 54.1989 44.4933C54.4321 44.584 54.7102 44.5626 54.9697 44.5833C55.03 44.5797 55.0906 44.5797 55.1509 44.5833C55.3779 44.6318 55.602 44.7273 55.829 44.7336C56.1749 44.744 56.5208 44.6789 56.8723 44.6747C57.367 44.6678 57.65 44.4802 57.6285 44.1409C57.6092 43.8403 57.2757 43.6458 56.8204 43.7122C56.6904 43.7309 56.5769 43.8653 56.4558 43.947L56.7768 44.163C56.8578 44.0072 56.9152 43.8521 56.9401 43.857C57.0727 43.8941 57.2011 43.9446 57.3234 44.0079C57.0107 44.3763 56.6883 44.4885 56.388 44.3098C56.2579 44.2323 56.1016 44.0135 56.1258 43.8944C56.2157 43.4477 56.6053 43.418 56.9789 43.4097C56.9159 43.0634 57.0522 42.8114 57.3601 42.6902C57.7475 42.5379 58.2595 42.612 58.3792 42.8682C58.4297 42.9769 58.4166 43.2289 58.3661 43.2497C58.1532 43.3281 57.9292 43.372 57.7026 43.3799C57.6548 43.3799 57.5379 43.1992 57.5593 43.141C57.5846 43.0955 57.6203 43.0566 57.6635 43.0276C57.7066 42.9986 57.7561 42.9803 57.8077 42.9741C57.8645 42.9741 57.9288 43.1071 58.0236 43.2227L58.2062 43.0676C57.8651 42.8204 57.4673 42.8128 57.3642 43.0579C57.1622 43.5357 57.6728 43.4976 57.8437 43.7116C58.2789 43.3079 58.8331 43.2961 59.2357 43.5599C59.417 43.6776 59.5014 43.8514 59.3963 44.028C59.3297 44.15 59.2269 44.2482 59.102 44.309C58.9772 44.3698 58.8365 44.3902 58.6995 44.3673C58.5612 44.3424 58.4491 44.1596 58.3252 44.0453C58.4636 44.0024 58.602 43.9581 58.7404 43.9179C58.7514 43.9179 58.7708 43.9428 58.8019 43.9691L58.6912 44.163L58.7923 44.2323L59.0226 43.9124C58.9126 43.836 58.7969 43.7679 58.6767 43.7088C58.6075 43.6797 58.5169 43.6998 58.4366 43.7046C58.1474 43.7226 57.9136 43.9269 57.917 44.1547C57.9205 44.3825 58.1516 44.5896 58.4373 44.602C58.6324 44.6103 58.8407 44.5681 59.022 44.6214C59.417 44.737 59.783 44.6768 60.1476 44.5307C60.2412 44.5011 60.3387 44.4861 60.4368 44.4864C60.6575 44.4725 60.8845 44.494 61.0969 44.4455C61.1993 44.422 61.3522 44.2648 61.3432 44.1838C61.3273 44.0384 61.2359 43.8223 61.1232 43.7822C60.7219 43.6368 60.331 43.5052 59.9774 43.2393C59.81 43.1147 59.5256 43.1486 59.298 43.1112C59.2517 42.4313 58.6573 41.9784 58.0526 42.1259C57.8415 42.1698 57.6246 42.1785 57.4106 42.1515C56.7568 42.0823 56.2109 42.3717 56.2247 42.9866V42.9873Z" fill="#112437"/>
<path d="M15.7538 38.3755H12.3844C12.3616 38.3755 12.3381 38.3755 12.3152 38.379C11.6365 38.3984 11.6365 38.3984 11.6137 39.104L9.74565 39.1857C9.74565 39.0181 9.73319 38.8499 9.74565 38.6837C9.76779 38.4406 9.67231 38.3589 9.43015 38.3624C8.71545 38.3742 8.00075 38.3665 7.28536 38.3665H5.54807L5.51832 38.9032H4.5082C4.45907 38.514 4.37882 38.1228 4.36982 37.726C4.33038 36.4831 4.25774 35.2374 4.3124 33.9973C4.35529 33.0231 4.55109 32.0585 5.09905 31.1999C5.67192 30.2997 6.79482 29.9175 7.81464 30.101C8.65388 30.2526 9.50349 30.3461 10.3476 30.4721C11.348 30.6217 12.3471 30.7817 13.3475 30.9319C14.1916 31.0586 15.0391 31.166 15.8811 31.3051C16.9314 31.4789 18.0169 31.4983 19.0105 31.9325C20.0268 32.3763 20.8211 33.0577 21.0591 34.1988C21.2667 35.1931 20.9442 36.0774 20.3465 36.8633C19.679 37.7268 18.8461 38.4483 17.8966 38.9856C17.75 39.0713 17.584 39.118 17.4143 39.1213C17.049 39.1213 16.683 39.0853 16.3184 39.052C16.0507 39.0271 15.7808 38.9932 15.8147 38.6061C15.8108 38.5258 15.7901 38.4473 15.7538 38.3755ZM15.4895 37.0128C15.4307 36.7137 15.3885 36.5046 15.3512 36.2955C15.2412 35.7201 14.9402 35.3261 14.395 35.054C13.6907 34.7077 13.0334 34.2646 12.3443 33.8844C11.5314 33.4364 10.7911 32.7073 9.68268 33.228V32.2586L9.3409 32.3008C9.3409 32.5716 9.32222 32.8153 9.34644 33.0542C9.36927 33.2834 9.27725 33.4004 9.08906 33.5168C8.20162 34.0735 7.32018 34.6401 6.44474 35.2167C6.23095 35.3552 5.96043 35.5151 5.87671 35.7277C5.72865 36.1058 5.70374 36.5323 5.6228 36.9616L9.76363 37.1132V36.5268H11.6054L11.6386 37.267L15.4895 37.0128ZM17.9886 33.4191C17.9768 32.2683 17.3721 31.7822 16.638 31.7975C15.6625 31.8182 14.9776 32.4532 14.9485 33.4441C14.9257 34.2854 15.6632 34.9674 16.5398 34.9778C17.3355 34.9854 18.0827 34.2341 17.9886 33.4191ZM9.73458 37.3092L5.62349 37.1132L5.56468 38.0965H9.73458V37.3092ZM11.6234 38.2682L15.7199 38.1131C15.6563 37.8251 15.5816 37.6284 15.5767 37.4331C15.5712 37.1562 15.4079 37.1818 15.2308 37.197C14.193 37.287 13.1552 37.3881 12.1125 37.4615C11.6213 37.4962 11.6199 37.4719 11.6282 37.9573C11.6234 38.0356 11.6234 38.1138 11.6234 38.2682Z" fill="#112437"/>
<path d="M16.6918 39.6107C15.5302 40.2609 14.3769 40.9263 13.2055 41.5578C11.8737 42.2772 10.5453 43.0077 9.17815 43.6545C8.5411 43.9571 7.85808 44.1514 7.1572 44.2292C5.96718 44.3517 5.23449 43.8248 4.92523 42.5355C4.75087 41.8071 4.72528 41.0433 4.63326 40.2955C4.6125 40.1265 4.59382 39.9569 4.57237 39.7741C4.65816 39.7672 4.73704 39.7554 4.81591 39.7547C7.62836 39.7305 10.4408 39.718 13.2526 39.6792C14.2973 39.6654 15.3406 39.592 16.3847 39.5463C16.4877 39.5421 16.5922 39.5463 16.6946 39.5463L16.6918 39.6107Z" fill="#112437"/>
<path d="M13.1118 57.3159H23.2692C22.7849 58.3463 22.3843 59.3198 21.8854 60.2421C21.2628 61.3902 19.879 62.0099 18.5126 61.7939C17.6342 61.6675 16.8258 61.2431 16.2225 60.5918C15.8952 60.2504 15.5548 59.9229 15.2207 59.5885C14.8623 59.2298 14.4942 58.8794 14.149 58.5083C13.8148 58.1496 13.5034 57.7688 13.1118 57.3159Z" fill="#112437"/>
<path d="M47.227 50.151C50.4746 49.0189 53.6662 49.0971 56.9291 50.3075C56.4544 50.6343 56.0428 50.9432 55.6069 51.2132C54.4875 51.9056 53.3092 52.4762 52.0258 52.8003C50.905 53.0835 49.8118 53.0682 48.8432 52.344C48.555 52.1193 48.3026 51.8523 48.0946 51.5518C47.7915 51.1225 47.5376 50.6565 47.227 50.151Z" fill="#112437"/>
<path d="M32.8619 59.1375C32.8515 58.2374 33.7821 56.7015 34.5273 56.4523C34.4491 56.723 34.4 56.9564 34.3142 57.1745C34.1972 57.4736 34.227 57.7187 34.4643 57.9521C34.6089 58.0947 34.6795 58.3288 34.84 58.4368C35.0475 58.5753 35.3146 58.6272 35.5561 58.7138L35.6758 58.5898C35.5941 58.3966 35.5623 58.1487 35.4218 58.0192C34.8614 57.5048 34.9825 56.7424 35.72 56.516C36.0826 56.4052 36.4852 56.4322 36.8672 56.3775C37.3445 56.3082 37.6753 56.5402 37.9665 56.8753C38.1091 57.0401 38.1637 57.2056 38.0191 57.3954C37.7922 57.6922 37.5648 57.9888 37.3369 58.2851C37.2332 58.4236 37.0602 58.5406 37.0332 58.6895C36.9599 59.0572 36.7316 59.069 36.434 59.0717C35.3416 59.0814 34.2484 59.1126 33.156 59.1354C33.0695 59.1396 32.9768 59.1375 32.8619 59.1375Z" fill="#112437"/>
<path d="M19.8172 51.4014C19.8546 51.4706 19.8864 51.5281 19.9182 51.589C19.9226 51.6103 19.9226 51.6322 19.9182 51.6534C19.9051 51.6756 19.8981 51.7033 19.8815 51.7109C19.2192 51.9966 18.5557 52.2817 17.891 52.566C17.7201 52.6394 17.6067 52.7391 17.6378 52.9545C17.6932 53.3416 17.4932 53.6192 17.1867 53.8027C16.564 54.1739 15.8915 54.347 15.1803 54.1489C15.0122 54.1025 14.779 53.9135 14.7652 53.7722C14.7458 53.5645 14.8738 53.3263 14.9866 53.1283C15.0232 53.0639 15.2356 53.0293 15.3194 53.0729C15.7476 53.2965 15.7421 53.3076 16.0251 52.9088C16.3323 52.9455 16.5211 53.5091 16.93 53.1165C16.9017 52.6858 16.7412 52.5335 16.2105 52.4594L16.1254 52.1824C16.5786 51.8459 16.8297 51.8535 17.2773 52.1423C17.3455 52.181 17.4207 52.2058 17.4985 52.2151C17.5763 52.2243 17.6552 52.2179 17.7305 52.1963C18.4293 51.9518 19.1191 51.6721 19.8172 51.4014Z" fill="#112437"/>
<path d="M54.2947 48.7025C53.8969 48.6402 53.5758 48.5979 53.2569 48.5342C53.2043 48.5238 53.1496 48.4269 53.1303 48.3597C52.9393 47.7033 52.7567 47.0441 52.5678 46.3863C52.5204 46.2615 52.4888 46.1312 52.4737 45.9985C53.1994 46.7907 53.8263 47.6396 54.2947 48.7025Z" fill="#112437"/>
<path d="M50.8669 48.5338L49.9868 48.6418L50.7652 45.8721L50.8697 45.879C51.035 46.7397 50.7617 47.6128 50.8669 48.5338Z" fill="#112437"/>
<path d="M50.2822 45.8067C50.087 46.4098 49.9002 47.0157 49.6948 47.6146C49.5813 47.9442 49.4678 48.2828 49.2907 48.5792C49.2001 48.7315 48.969 48.8001 48.8015 48.9067L48.7566 48.8208L50.1521 45.7568L50.2822 45.8067Z" fill="#112437"/>
<path d="M51.3289 48.4939L51.6555 46.4104L51.7102 46.4014C51.7316 46.5925 51.7544 46.7829 51.7745 46.974C51.8119 47.3244 51.8707 47.6754 51.8762 48.0265C51.8818 48.3776 51.6299 48.5569 51.3289 48.4939Z" fill="#112437"/>
<path d="M14.6726 50.7139C14.7162 51.0109 14.7847 51.3073 14.7909 51.605C14.7909 51.7137 14.647 51.8245 14.5688 51.9346C14.4871 51.8038 14.3259 51.6639 14.3398 51.5448C14.3723 51.2678 14.4892 50.9957 14.5722 50.7215L14.6726 50.7139Z" fill="#112437"/>
<path d="M58.5757 23.4083C59.4018 23.4665 60.0868 23.5164 60.7724 23.5634C61.0492 23.5821 61.3826 23.3349 61.4179 23.0725C61.4504 22.8281 61.2795 22.7955 61.09 22.7886C60.6437 22.7658 60.1988 22.7332 59.7062 22.7014C59.7062 22.2361 59.6979 21.7784 59.7062 21.3214C59.721 20.6649 59.7441 20.009 59.7754 19.3535C59.7803 19.2531 59.8232 19.0959 59.8917 19.0668C60.7876 18.686 61.7113 18.4547 62.6128 19.0017C63.2846 19.4096 63.6796 20.084 63.8997 20.811C64.2906 22.1038 64.6296 23.4146 64.9471 24.7281C65.2647 26.0417 65.529 27.3711 65.8161 28.6944C66.1116 30.0571 66.2818 31.4357 66.1897 32.8289C66.1441 33.5525 66.0251 34.2754 65.5214 34.8715C65.089 35.3791 64.5223 35.4705 63.9301 35.3798C62.08 35.0966 60.2334 34.785 58.3875 34.4796C57.0834 34.2615 55.784 34.0108 54.4778 33.8093C53.1487 33.6016 51.8203 33.4105 50.5431 32.9701C49.5966 32.6433 48.709 32.1953 47.9791 31.5049C46.7026 30.2966 46.5282 28.7408 47.4636 27.2458C48.2094 26.0569 49.304 25.2537 50.4809 24.5453C52.3281 23.4374 54.1775 22.333 56.029 21.232L56.3237 21.0548V22.7166C55.9688 22.7415 55.6512 22.7665 55.3336 22.7858C55.0403 22.8039 54.9448 22.95 55.0811 23.2013C55.1939 23.409 55.3482 23.5856 55.6159 23.569C56.1985 23.5316 56.781 23.4859 57.4023 23.4409C57.4519 23.8725 57.3732 24.3092 57.1761 24.6963C57.0633 24.9317 56.5271 24.9954 56.2289 24.8645C56.0864 24.8022 55.9321 24.7343 55.7826 24.7343C55.7203 24.7376 55.6595 24.7548 55.6048 24.7848C55.5501 24.8147 55.5028 24.8567 55.4665 24.9075C55.4326 24.9684 55.5273 25.1844 55.6 25.2073C56.2344 25.3852 56.0705 25.8997 56.0151 26.2909C55.8767 27.2922 55.6837 28.2872 55.4678 29.2753C55.389 29.6354 55.2091 29.9809 55.0327 30.3098C54.6058 31.1033 54.785 31.6192 55.6706 31.8442C56.5043 32.0561 57.3573 32.1994 58.2076 32.3379C59.2676 32.5103 60.2957 32.304 61.3072 31.9917C61.4141 31.9549 61.518 31.9098 61.6179 31.8567C62.1783 31.5797 62.2406 31.4371 62.0081 30.8755C61.577 29.8369 61.1246 28.8045 60.7053 27.7596C60.4602 27.1415 60.3507 26.478 60.3843 25.8138C60.394 25.5847 60.4535 25.4482 60.6845 25.3929C60.9378 25.3333 61.0118 25.1463 60.9288 24.9192C60.8457 24.6921 60.6354 24.6893 60.4362 24.7468C60.3281 24.7835 60.2249 24.8332 60.129 24.895C59.6128 25.1969 59.1936 25.12 58.9272 24.5889C58.7584 24.2531 58.703 23.8529 58.5757 23.4083Z" fill="#112437"/>
<path d="M50.8071 19.6528C50.9677 19.182 51.1219 18.7527 51.2569 18.3192C51.3122 18.1399 51.1953 18.0422 51.0278 18.0159C50.4688 17.9211 49.9105 17.8124 49.348 17.7431C48.9889 17.6988 48.5869 17.282 48.7253 16.9662C48.7945 16.8076 49.0657 16.7252 49.258 16.6366C49.3508 16.5944 49.4732 16.6172 49.521 16.6144C49.2331 16.2945 48.9253 15.9677 48.6354 15.6264C48.407 15.3563 48.4513 15.2801 48.7634 15.0966C49.0263 14.9402 49.2553 14.7276 49.4981 14.5427C49.7002 14.6846 49.9243 14.8841 50.1831 15.0122C50.3969 15.1126 50.6297 15.1662 50.866 15.1693C51.2664 15.173 51.6666 15.1513 52.0643 15.1043C52.7893 15.026 53.3774 14.1605 53.1879 13.4694C53.1657 13.3898 53.0626 13.3309 52.9969 13.2652C52.9405 13.3381 52.894 13.4182 52.8585 13.5034C52.8322 13.6252 52.8167 13.7492 52.8122 13.8738C52.7893 14.1203 52.6295 14.1674 52.424 14.1349C52.0089 14.0656 51.5938 14.0109 51.1884 13.9271C50.8286 13.851 50.4965 13.7097 50.3048 13.3586C50.2329 13.2414 50.1482 13.1325 50.0523 13.0339C49.6988 12.6392 49.7271 12.2937 50.1471 11.9308C50.2488 11.9798 50.3543 12.0203 50.4626 12.052C50.5726 12.0756 50.6902 12.0659 50.7532 12.1337C50.8784 12.2667 50.9829 12.4377 51.1351 12.5201C51.234 12.5734 51.4028 12.4993 51.5433 12.4266C51.2866 12.3387 50.9822 12.365 51.023 11.9655C51.023 11.9329 50.8341 11.8665 50.7262 11.8415C50.6241 11.8235 50.5206 11.814 50.4169 11.8131C50.4688 11.5078 50.5512 11.2481 50.5408 10.9926C50.5352 10.8659 50.3803 10.7156 50.2557 10.6298C49.916 10.3916 49.312 10.4767 49.0519 10.8056C48.9073 10.9884 48.7322 11.2135 48.7288 11.4219C48.7288 11.6089 48.9363 11.8 49.0747 12.0195C49.0124 12.0243 48.9218 12.0589 48.8554 12.0326C48.1905 11.7654 47.4924 11.7924 46.7971 11.7813C46.6506 11.7875 46.505 11.7558 46.3743 11.6892C46.1668 11.559 46.0796 11.3797 46.3086 11.1643C46.4312 11.0349 46.5453 10.8977 46.6504 10.7537C46.4504 10.5107 46.2941 10.6395 46.1661 10.7662C45.9807 10.9504 45.7745 11.1359 45.6596 11.3631C45.5904 11.5015 45.623 11.7453 45.6956 11.9018C45.807 12.151 45.964 12.3771 46.1585 12.5686C46.2782 12.6814 46.4989 12.7209 46.6774 12.7292C47.1375 12.7507 47.5996 12.7361 48.1372 12.7361C47.7401 13.333 46.9354 13.6585 47.2703 14.4845C47.0627 14.873 46.8247 15.2462 46.6677 15.6485C46.578 15.888 46.5664 16.1498 46.6345 16.3963C46.7473 16.7578 46.6753 17.0742 46.5826 17.4107C46.3667 18.1932 46.1612 18.9784 45.9371 19.8156H42.448L42.4528 19.9485C45.3351 20.114 48.223 19.9686 51.1289 20.1133C50.8334 20.2899 50.5463 20.4838 50.2405 20.6402C48.7481 21.4061 47.2468 22.1567 45.5828 22.4856C44.5111 22.6975 43.4311 22.8006 42.3719 22.4399C41.3486 22.0937 40.766 21.3708 40.5986 20.2809C40.4333 19.209 40.7425 18.2244 41.0705 17.2459C41.7575 15.197 42.4853 13.1606 43.1821 11.1172C43.5363 10.0786 43.8227 9.01571 44.4046 8.06639C44.8889 7.2784 45.497 6.64621 46.4359 6.48834C47.1603 6.36647 47.893 6.4461 48.6118 6.6206C50.9704 7.19116 53.1048 8.23742 55.0462 9.67768C55.9457 10.3466 56.7614 11.1179 57.3412 12.1012C58.2586 13.6536 58.0607 15.168 56.6534 16.3146C55.5582 17.2072 54.3544 17.9661 53.1941 18.7804C52.889 18.995 52.5493 19.1681 52.2677 19.4091C51.7951 19.8107 51.2672 19.6515 50.8071 19.6528Z" fill="#112437"/>
<path d="M56.6982 22.7212C56.6982 22.1098 56.6941 21.5385 56.7038 20.9673C56.7065 20.9243 56.7184 20.8824 56.7387 20.8444C56.759 20.8064 56.7872 20.7732 56.8214 20.7471C57.6447 20.2672 58.4736 19.7978 59.3536 19.293C59.3536 20.1931 59.3536 21.024 59.3536 21.8626C59.3536 22.7184 59.3536 22.7184 58.4999 22.7184L56.6982 22.7212Z" fill="#112437"/>
<path d="M60.2163 27.3105C60.1016 27.218 59.9802 27.1342 59.853 27.0599C59.6455 26.9574 59.3494 27.1291 59.3466 27.3514C59.3466 27.4483 59.4082 27.5965 59.485 27.6284C59.5618 27.6602 59.6822 27.5764 59.7998 27.5384C59.9762 27.7322 59.9568 28.2633 59.7354 28.5341C59.5542 28.7557 59.0775 28.8443 58.8581 28.6518C58.7502 28.5576 58.699 28.363 58.6879 28.2093C58.6838 28.147 58.854 28.0708 58.9453 28.0016C58.9799 28.1982 58.9654 28.3478 59.0339 28.4261C59.0816 28.4794 59.3065 28.4731 59.3404 28.4205C59.4199 28.2993 59.4898 28.12 59.4587 27.9891C59.3708 27.6173 59.0373 27.5377 58.5689 27.7011C58.47 27.7357 58.2631 27.6782 58.2175 27.5986C58.1351 27.456 58.1261 27.26 58.2956 27.2268C58.4797 27.3535 58.616 27.5245 58.7322 27.5114C59.0214 27.4802 59.0851 27.1859 58.8754 26.9782C58.7842 26.8889 58.6712 26.825 58.5476 26.7929C58.4241 26.7608 58.2943 26.7615 58.1711 26.7951C58.048 26.8287 57.9357 26.894 57.8456 26.9844C57.7554 27.0748 57.6904 27.1872 57.6571 27.3105C57.1485 27.2413 56.9168 27.3514 56.8137 27.7156C56.7445 27.9718 56.923 28.2931 57.1859 28.3118C57.298 28.3194 57.4184 28.2156 57.5318 28.1629C57.4696 28.075 57.4094 27.9857 57.3436 27.9005C57.3137 27.8692 57.2805 27.8411 57.2447 27.8167L57.2731 27.7087C57.4073 27.7419 57.5837 27.7329 57.6674 27.8167C57.848 27.9974 57.7885 28.345 57.5837 28.4766C57.2738 28.6746 56.9555 28.6393 56.6386 28.4856C56.3467 28.3471 56.1827 28.1145 56.1723 27.7869C56.1502 27.0834 56.4207 26.5475 57.0641 26.2165C57.9317 25.7699 59.2615 25.9465 59.8932 26.6278C60.0627 26.8106 60.1602 27.0585 60.291 27.2766L60.2163 27.3105ZM57.3796 26.3515L57.0738 26.6977C57.1776 26.7801 57.2814 26.929 57.3858 26.9262C57.4903 26.9235 57.5865 26.7698 57.6868 26.6818L57.3796 26.3515Z" fill="#112437"/>
<path d="M50.309 19.6056C49.4642 19.6056 48.6368 19.6015 47.8093 19.6056C47.6059 19.6056 47.4025 19.6686 47.2004 19.661C47.0448 19.6548 46.8628 19.6222 46.7452 19.5315C46.5785 19.4034 46.6324 19.2151 46.732 19.0427C46.9611 18.6466 47.1811 18.245 47.455 17.7568C47.5505 18.1127 47.601 18.3606 47.6834 18.5968C47.7996 18.9284 47.965 18.9776 48.2984 18.8938C48.937 18.7318 49.5874 18.6085 50.246 18.7616C50.5546 18.8308 50.6024 18.9997 50.4488 19.2753C50.3965 19.3829 50.3499 19.4932 50.309 19.6056Z" fill="#112437"/>
<path d="M32.3159 20.8682C31.0705 20.8225 30.1538 20.4916 29.3491 19.8047C28.4794 19.0624 27.9432 18.0847 27.3752 17.1291C26.2468 15.2325 25.1412 13.3166 24.0079 11.4193C23.6806 10.8702 23.9387 10.247 24.5503 9.77688C25.9396 8.70776 27.5669 8.12058 29.1858 7.53132C31.2545 6.78004 33.3142 5.9962 35.4715 5.53851C36.2222 5.37856 36.9936 5.32385 37.7546 5.20337C38.4347 5.09605 39.0851 5.20337 39.7299 5.4111C40.5048 5.6583 40.9954 6.52314 40.7594 7.31182C40.3886 8.55335 39.9845 9.78588 39.5833 11.0184C38.982 12.863 38.4645 14.7423 37.7394 16.5371C36.9389 18.5195 35.5476 20.011 33.427 20.6626C33.0077 20.7886 32.5601 20.8246 32.3159 20.8682ZM33.1323 12.1962C32.7739 12.1962 32.4404 12.1893 32.1076 12.1962C31.6233 12.208 31.2877 12.4974 31.2836 12.9274C31.2806 13.0191 31.2958 13.1105 31.3281 13.1964C31.3604 13.2822 31.4093 13.3609 31.472 13.4278C31.5348 13.4948 31.61 13.5487 31.6935 13.5865C31.7771 13.6243 31.8672 13.6453 31.9589 13.6483C32.2605 13.669 32.5663 13.6351 32.8687 13.6573C32.9773 13.6649 33.0762 13.7639 33.1835 13.8214C33.0928 13.8795 33.0077 13.9723 32.9067 13.9896C32.5566 14.0519 32.302 14.1565 32.3532 14.6017C32.3657 14.7028 32.1906 14.8496 32.0723 14.9327C32.026 14.9653 31.8862 14.8932 31.8094 14.8399C31.7881 14.816 31.7731 14.7871 31.7657 14.7559C31.7584 14.7248 31.7589 14.6922 31.7672 14.6613C31.7845 14.6156 31.8634 14.5851 31.9208 14.565C31.9939 14.5442 32.0683 14.5285 32.1436 14.518C32.1076 14.4286 32.0896 14.2798 32.0315 14.2618C31.8731 14.2133 31.6793 14.1676 31.5327 14.2181C31.2967 14.2985 31.1971 14.5311 31.2262 14.7721C31.2781 15.2055 31.5721 15.4784 32.1595 15.4507C32.5836 15.4306 32.8126 15.2208 32.8514 14.7735C32.8576 14.7042 32.8444 14.6239 32.8777 14.572C32.8972 14.5461 32.9225 14.5252 32.9516 14.5109C32.9807 14.4966 33.0127 14.4893 33.0451 14.4896C33.0746 14.4978 33.1016 14.5134 33.1234 14.535C33.1452 14.5566 33.1611 14.5834 33.1696 14.6128C33.18 14.9514 33.1752 15.2907 33.1752 15.6549C32.7649 15.6549 32.4196 15.6466 32.0758 15.6549C31.6157 15.6688 31.2905 15.9547 31.2732 16.3744C31.2594 16.7033 31.534 17.1104 31.9727 17.1083C32.2993 17.1083 32.6258 17.0952 32.951 17.1153C33.0306 17.1201 33.1032 17.2337 33.1786 17.2974C33.112 17.3567 33.0377 17.407 32.9579 17.4469C32.8887 17.4726 32.7981 17.4469 32.7178 17.4539C31.7492 17.5411 31.3016 18.1096 31.5264 19.0104H34.7665V15.9014C34.677 15.9421 34.5844 15.9756 34.4897 16.0018C34.1438 16.0676 34.0697 16.2788 34.0877 16.6105C34.1189 17.2046 34.0967 17.8015 34.0967 18.4108H32.1152C32.1643 18.3201 32.1913 18.2031 32.2391 18.1927C32.7566 18.0944 33.2769 18.0133 33.7992 17.9275V11.8694H34.7678C34.8668 11.0246 34.5534 10.4499 33.9016 10.3461C33.5758 10.2927 33.2347 10.335 32.9005 10.3294C32.376 10.3211 31.8364 10.4132 31.35 10.0622C31.3991 10.2907 31.404 10.4949 31.4884 10.657C31.5576 10.7816 31.7195 10.9339 31.8426 10.9339C32.4605 10.9415 33.079 10.9118 33.6968 10.8785C33.986 10.8633 34.105 11.0101 34.1714 11.294H31.7402L31.8599 11.8618C32.1263 11.8424 32.3989 11.8244 32.6715 11.8022C32.9275 11.7822 33.1316 11.823 33.1323 12.1969V12.1962ZM33.5149 9.14953C33.371 9.45074 33.1551 9.51929 32.9614 9.41404C32.823 9.33995 32.7081 9.14607 32.6653 8.98404C32.5746 8.64129 32.8424 8.44741 33.0506 8.23553C33.3557 7.92532 33.3682 7.62688 33.1537 7.37691C33.0077 7.60888 32.8617 7.86715 32.6895 8.10743C32.5566 8.29231 32.3781 8.44464 32.2439 8.62883C32.0211 8.93557 32.0792 9.25202 32.2667 9.55253C32.4681 9.87174 32.9033 10.0158 33.3371 9.90705C33.6567 9.82673 33.9189 9.61346 33.9411 9.29287C33.9549 9.0983 33.8027 8.83933 33.6484 8.69946C33.6056 8.66109 33.5555 8.63181 33.5011 8.61341C33.4467 8.595 33.3891 8.58785 33.3319 8.59238C33.2746 8.59691 33.2189 8.61304 33.168 8.63978C33.1172 8.66651 33.0723 8.70331 33.0361 8.74793C32.9724 8.81717 32.924 8.98058 32.9628 9.04706C33.0015 9.11353 33.1537 9.12599 33.2589 9.14746C33.344 9.15499 33.4297 9.15522 33.5149 9.14815V9.14953Z" fill="#112437"/>
<path d="M15.8186 15.4284C15.7349 15.6825 15.6352 15.9325 15.573 16.1901C15.5266 16.3833 15.6145 16.5363 15.831 16.5536C16.0476 16.5709 16.0248 16.4006 16.0566 16.2517C16.1019 16.0823 16.1686 15.9195 16.2551 15.767C16.3402 15.5994 16.4198 15.4208 16.5457 15.2823C16.6509 15.1701 16.8176 15.0538 16.9609 15.051C17.286 15.0455 17.5649 15.2948 17.5642 15.5787C17.5642 15.8231 17.495 16.0689 17.4465 16.3119C17.3774 16.6429 17.284 16.9691 17.2314 17.3021C17.1767 17.6483 16.9304 17.5202 16.7512 17.5098C16.424 17.4877 16.0988 17.4302 15.7729 17.3907C15.7295 17.3922 15.6863 17.3985 15.6442 17.4094C15.6795 17.6864 15.7259 17.9177 16.0946 17.8761C16.3885 17.8382 16.6846 17.8195 16.9809 17.82C17.0639 17.82 17.2162 17.9481 17.2155 18.016C17.2106 18.6946 17.1885 19.3732 17.1463 20.0497C17.1407 20.1411 17.0044 20.2346 16.9138 20.3093C16.1085 20.9775 15.2921 21.6333 14.4971 22.3174C14.3145 22.4739 14.082 22.6636 14.2266 23.0431L17.0889 21.5128C17.0889 21.8735 17.1075 22.1831 17.0771 22.487C17.0688 22.5722 16.9228 22.6982 16.828 22.71C16.575 22.7331 16.3205 22.7362 16.067 22.719C15.8705 22.7128 15.7812 22.7723 15.7688 22.9911C15.692 24.3635 15.5142 25.7221 15.1661 27.055C15.1481 27.1578 15.1373 27.2616 15.1336 27.3659C14.7801 27.314 14.4348 27.2731 14.0958 27.2115C12.7266 26.9643 11.3553 26.7268 9.99166 26.4498C9.47435 26.3378 8.96782 26.1807 8.47785 25.9803C7.50923 25.5974 7.30167 24.7541 7.7244 23.9114C8.11116 23.1448 8.58854 22.4185 9.08116 21.7136C9.70384 20.819 10.3805 19.959 11.0474 19.0948C11.4301 18.599 11.8237 18.1088 12.243 17.6407C13.341 16.422 14.4964 15.2608 15.8732 14.351C16.4959 13.9355 17.1484 13.5581 17.899 13.4238C18.968 13.2327 19.7761 13.4079 20.5067 14.3932C21.5646 15.8182 22.6473 17.2252 23.7073 18.6489C24.4683 19.6675 25.2633 20.6715 25.5573 21.949C25.9579 23.6919 25.4944 25.3523 23.9785 26.5378C22.9317 27.3562 21.7299 27.6976 20.4347 27.8534C19.4315 27.9732 18.4553 27.8374 17.4715 27.7087C17.1529 27.677 16.837 27.6222 16.5264 27.5445C17.5891 27.5065 18.649 27.683 19.7442 27.4753L18.7708 22.7225C18.5501 22.7225 18.2173 22.7079 17.8928 22.7266C17.6161 22.7425 17.5545 22.6124 17.5752 22.3728C17.605 22.0266 17.6119 21.6845 17.65 21.3431C17.6568 21.2923 17.6739 21.2434 17.7 21.1992C17.7262 21.1551 17.7609 21.1167 17.8022 21.0862C18.786 20.5039 19.7761 19.9333 20.7641 19.3552C20.8602 19.2991 20.9481 19.2278 21.0408 19.1641C20.9516 19.0241 20.8227 18.9138 20.6707 18.8473C20.5187 18.7809 20.3503 18.7612 20.187 18.7908C19.2828 18.9238 18.5093 19.3739 17.6195 19.8426C17.7475 19.1994 17.4237 18.5658 18.0063 18.0686C18.09 17.9994 18.0602 17.7917 18.0948 17.5756C18.4186 17.5756 18.7632 17.5756 19.1084 17.5756C19.2468 17.5756 19.4357 17.6449 19.5083 17.5756C19.637 17.4579 19.6951 17.2619 19.7851 17.0985C19.6737 17.0791 19.5595 17.0341 19.4516 17.0452C19.0669 17.0757 18.6842 17.127 18.3052 17.1989C18.0499 17.2529 18.0907 17.1768 18.1114 16.9815C18.1647 16.4788 18.2567 15.9588 18.1806 15.4686C18.063 14.6965 17.3262 14.3572 16.5796 14.6217C16.26 14.7353 15.9902 14.8751 15.6525 14.6072C16.004 14.8551 15.8898 15.1487 15.8227 15.4346L15.8186 15.4284Z" fill="#112437"/>
<path d="M18.9882 26.9431C17.9898 26.9431 17.0655 26.9486 16.1418 26.9375C15.9848 26.9375 15.892 26.8683 15.9467 26.6426C16.0242 26.3247 16.0193 25.9861 16.0491 25.6565C16.1183 24.8845 16.1806 24.111 16.2691 23.3411C16.2781 23.2628 16.449 23.1465 16.5459 23.1465C16.9451 23.1465 17.3436 23.1963 17.7435 23.2026C18.4264 23.2137 18.3932 23.2095 18.4803 23.9089C18.5661 24.5916 18.7356 25.2639 18.8567 25.9425C18.9121 26.2541 18.9397 26.5699 18.9882 26.9431ZM17.4709 24.0349C16.8392 24.0349 16.3978 24.4711 16.3957 25.0957C16.3957 25.6856 16.8302 26.1122 17.4335 26.1115C17.5643 26.1094 17.6932 26.0811 17.8129 26.0284C17.9326 25.9756 18.0405 25.8995 18.1303 25.8044C18.2201 25.7092 18.2899 25.5971 18.3358 25.4746C18.3817 25.3521 18.4026 25.2216 18.3973 25.0908C18.3786 24.4039 18.0361 23.9836 17.4702 24.037L17.4709 24.0349Z" fill="#112437"/>
<path d="M17.6829 20.8336C17.5874 20.4798 17.6711 20.3275 17.9354 20.2146C18.4834 19.9805 19.0106 19.698 19.5537 19.4529C19.654 19.4079 19.7924 19.4467 19.9128 19.4467L19.9563 19.5928L17.6829 20.8336Z" fill="#112437"/>
<path d="M15.0822 22.1569L17.034 20.7651L17.1364 20.8115C17.0976 20.9389 17.099 21.1342 17.0146 21.1841C16.3954 21.5476 15.7596 21.8827 15.1293 22.2269L15.0822 22.1569Z" fill="#112437"/>
<path d="M15.8158 15.441C15.9654 15.1416 16.1518 15.0944 16.4434 15.4126C16.3187 15.5014 16.2113 15.6268 16.088 15.6456C16.0118 15.6573 15.9107 15.5069 15.82 15.4306L15.8158 15.441Z" fill="#112437"/>
<path d="M20.8947 46.0612C21.4019 46.0813 21.871 45.9767 22.165 45.5592C22.3449 45.3037 22.4258 44.979 22.5552 44.6867C22.5953 44.596 22.6507 44.5116 22.6991 44.4243C22.7849 44.4936 22.9122 44.551 22.951 44.6424C23.2927 45.4574 22.6535 46.3624 21.7236 46.3957C21.1998 46.4151 21.0601 46.3631 20.8947 46.0612Z" fill="#112437"/>
<path d="M11.7783 33.9492H9.07237C10.1538 33.1293 10.6976 33.1155 11.7783 33.9492Z" fill="#112437"/>
<path d="M16.536 34.3123C16.0773 34.3123 15.7445 33.966 15.7501 33.5028C15.7556 33.0527 16.1002 32.676 16.5485 32.6982C17.0266 32.7224 17.4272 32.9579 17.4334 33.4488C17.4355 33.8892 16.9878 34.3123 16.536 34.3123Z" fill="#112437"/>
<path d="M32.6465 16.6511C32.4692 16.6338 32.2936 16.6023 32.1214 16.5569C32.0522 16.5341 32.0176 16.4122 31.9671 16.3353C32.0404 16.2945 32.1117 16.2225 32.1871 16.2183C32.4492 16.1994 32.7124 16.1994 32.9745 16.2183C33.0513 16.2252 33.1191 16.3388 33.191 16.4032C33.1142 16.4766 33.0485 16.5777 32.9565 16.6158C32.8645 16.6538 32.7545 16.6234 32.6514 16.6234L32.6465 16.6511Z" fill="#112437"/>
<path d="M33.0999 13.166C32.8432 13.166 32.5879 13.1951 32.345 13.1549C32.2067 13.132 32.0904 12.9949 31.9638 12.9091C32.0842 12.8565 32.1997 12.7768 32.325 12.7588C32.5042 12.7332 32.6903 12.7588 32.8722 12.7498C33.1967 12.7284 33.2652 12.8592 33.0999 13.166Z" fill="#112437"/>
</g>
<path d="M95.5393 45.36C94.7233 43.368 93.9073 41.388 93.0913 39.42C92.2993 37.452 91.4953 35.484 90.6793 33.516C90.4873 33.06 90.2353 32.424 89.9233 31.608C89.6353 30.768 89.3233 29.808 88.9873 28.728C88.6753 27.648 88.3873 26.532 88.1233 25.38C88.1713 26.724 88.2073 27.996 88.2313 29.196C88.2553 30.372 88.2553 31.5 88.2313 32.58C88.2313 33.108 88.2313 33.648 88.2313 34.2C88.2313 34.752 88.2193 35.304 88.1953 35.856C88.1953 36.384 88.1953 36.924 88.1953 37.476C88.1953 38.004 88.1953 38.544 88.1953 39.096C88.1953 39.744 88.1713 40.368 88.1233 40.968C88.0993 41.568 88.0633 42.024 88.0153 42.336C88.4233 42.288 88.9153 42.264 89.4913 42.264C90.0913 42.24 90.5113 42.228 90.7513 42.228V45H82.5433V42.624C83.0953 42.6 83.5513 42.528 83.9113 42.408C84.2953 42.288 84.5833 42.012 84.7753 41.58C84.9913 41.148 85.0993 40.452 85.0993 39.492L85.3153 25.704C85.3393 25.056 85.3633 24.432 85.3873 23.832C85.4113 23.232 85.4353 22.776 85.4593 22.464C85.0753 22.488 84.5953 22.512 84.0193 22.536C83.4433 22.536 83.0233 22.548 82.7593 22.572V19.8H90.7153L96.1513 33.732C96.3673 34.284 96.6073 34.932 96.8713 35.676C97.1353 36.396 97.3873 37.104 97.6273 37.8C97.8673 38.472 98.0473 39.012 98.1673 39.42H98.2033C98.5153 38.58 98.8033 37.764 99.0673 36.972C99.3313 36.18 99.6073 35.412 99.8953 34.668C100.831 32.172 101.755 29.688 102.667 27.216C103.603 24.744 104.539 22.272 105.475 19.8H113.791V22.176C113.263 22.2 112.795 22.272 112.387 22.392C111.979 22.512 111.667 22.788 111.451 23.22C111.259 23.628 111.175 24.324 111.199 25.308L111.739 39.096C111.787 39.744 111.787 40.368 111.739 40.968C111.691 41.568 111.643 42.024 111.595 42.336C112.003 42.288 112.495 42.264 113.071 42.264C113.671 42.24 114.091 42.228 114.331 42.228V45H104.323V42.624C104.875 42.6 105.343 42.528 105.727 42.408C106.135 42.288 106.435 42.012 106.627 41.58C106.843 41.148 106.927 40.452 106.879 39.492L106.591 31.86C106.591 31.572 106.567 31.08 106.519 30.384C106.471 29.664 106.423 28.884 106.375 28.044C106.351 27.18 106.327 26.376 106.303 25.632C106.231 25.8 106.159 25.968 106.087 26.136C106.015 26.28 105.955 26.436 105.907 26.604L98.8873 45.36H95.5393ZM129.62 45.576C127.34 45.576 125.396 45.192 123.788 44.424C122.204 43.656 120.92 42.636 119.936 41.364C118.952 40.068 118.232 38.64 117.776 37.08C117.32 35.52 117.092 33.96 117.092 32.4C117.092 30.888 117.344 29.364 117.848 27.828C118.376 26.268 119.156 24.84 120.188 23.544C121.244 22.248 122.564 21.204 124.148 20.412C125.732 19.62 127.592 19.224 129.728 19.224C131.912 19.224 133.796 19.62 135.38 20.412C136.964 21.204 138.26 22.26 139.268 23.58C140.276 24.876 141.02 26.292 141.5 27.828C142.004 29.364 142.256 30.888 142.256 32.4C142.256 33.888 141.992 35.4 141.464 36.936C140.96 38.472 140.18 39.9 139.124 41.22C138.092 42.516 136.784 43.572 135.2 44.388C133.616 45.18 131.756 45.576 129.62 45.576ZM130.016 42.948C131.264 42.948 132.308 42.648 133.148 42.048C133.988 41.424 134.66 40.62 135.164 39.636C135.668 38.652 136.028 37.584 136.244 36.432C136.46 35.256 136.568 34.116 136.568 33.012C136.568 31.356 136.424 29.844 136.136 28.476C135.848 27.108 135.404 25.932 134.804 24.948C134.204 23.94 133.436 23.172 132.5 22.644C131.588 22.092 130.508 21.828 129.26 21.852C128.036 21.876 127.004 22.212 126.164 22.86C125.324 23.484 124.652 24.3 124.148 25.308C123.644 26.292 123.284 27.372 123.068 28.548C122.852 29.724 122.744 30.864 122.744 31.968C122.744 33.096 122.864 34.296 123.104 35.568C123.368 36.84 123.776 38.04 124.328 39.168C124.88 40.296 125.624 41.208 126.56 41.904C127.496 42.6 128.648 42.948 130.016 42.948ZM144.878 45V42.624C145.43 42.6 145.886 42.528 146.246 42.408C146.63 42.288 146.918 42.012 147.11 41.58C147.326 41.148 147.434 40.452 147.434 39.492V25.704C147.434 25.056 147.446 24.432 147.47 23.832C147.518 23.232 147.554 22.776 147.578 22.464C147.194 22.488 146.714 22.512 146.138 22.536C145.562 22.536 145.142 22.548 144.878 22.572V19.8H155.21V22.176C154.682 22.2 154.226 22.272 153.842 22.392C153.458 22.512 153.158 22.788 152.942 23.22C152.75 23.628 152.654 24.324 152.654 25.308V30.924H162.554V25.704C162.554 25.056 162.566 24.432 162.59 23.832C162.614 23.232 162.65 22.776 162.698 22.464C162.314 22.488 161.834 22.512 161.258 22.536C160.682 22.536 160.262 22.548 159.998 22.572V19.8H170.33V22.176C169.802 22.2 169.346 22.272 168.962 22.392C168.578 22.512 168.278 22.788 168.062 23.22C167.87 23.628 167.774 24.324 167.774 25.308V39.096C167.774 39.744 167.762 40.368 167.738 40.968C167.714 41.568 167.678 42.024 167.63 42.336C168.014 42.288 168.494 42.264 169.07 42.264C169.67 42.24 170.09 42.228 170.33 42.228V45H159.998V42.624C160.55 42.6 161.006 42.528 161.366 42.408C161.75 42.288 162.038 42.012 162.23 41.58C162.446 41.148 162.554 40.452 162.554 39.492V33.66L152.654 33.768V39.096C152.654 39.744 152.642 40.368 152.618 40.968C152.594 41.568 152.558 42.024 152.51 42.336C152.894 42.288 153.374 42.264 153.95 42.264C154.55 42.24 154.97 42.228 155.21 42.228V45H144.878ZM173.917 45V42.624C174.469 42.6 174.925 42.528 175.285 42.408C175.669 42.288 175.957 42.012 176.149 41.58C176.365 41.148 176.473 40.452 176.473 39.492V25.704C176.473 25.056 176.485 24.432 176.509 23.832C176.557 23.232 176.593 22.776 176.617 22.464C176.233 22.488 175.753 22.512 175.177 22.536C174.601 22.536 174.181 22.548 173.917 22.572V19.8H191.917L192.133 26.784H189.757C189.757 25.464 189.529 24.468 189.073 23.796C188.617 23.124 188.053 22.68 187.381 22.464C186.709 22.224 186.049 22.116 185.401 22.14L184.105 22.176C183.601 22.176 183.169 22.248 182.809 22.392C182.449 22.512 182.173 22.8 181.981 23.256C181.789 23.688 181.693 24.372 181.693 25.308V39.096C181.693 39.744 181.681 40.368 181.657 40.968C181.633 41.568 181.597 42.024 181.549 42.336C181.813 42.312 182.161 42.3 182.593 42.3C183.025 42.276 183.445 42.264 183.853 42.264C184.285 42.24 184.585 42.228 184.753 42.228V45H173.917ZM206.471 45.576C204.191 45.576 202.247 45.192 200.639 44.424C199.055 43.656 197.771 42.636 196.787 41.364C195.803 40.068 195.083 38.64 194.627 37.08C194.171 35.52 193.943 33.96 193.943 32.4C193.943 30.888 194.195 29.364 194.699 27.828C195.227 26.268 196.007 24.84 197.039 23.544C198.095 22.248 199.415 21.204 200.999 20.412C202.583 19.62 204.443 19.224 206.579 19.224C208.763 19.224 210.647 19.62 212.231 20.412C213.815 21.204 215.111 22.26 216.119 23.58C217.127 24.876 217.871 26.292 218.351 27.828C218.855 29.364 219.107 30.888 219.107 32.4C219.107 33.888 218.843 35.4 218.315 36.936C217.811 38.472 217.031 39.9 215.975 41.22C214.943 42.516 213.635 43.572 212.051 44.388C210.467 45.18 208.607 45.576 206.471 45.576ZM206.867 42.948C208.115 42.948 209.159 42.648 209.999 42.048C210.839 41.424 211.511 40.62 212.015 39.636C212.519 38.652 212.879 37.584 213.095 36.432C213.311 35.256 213.419 34.116 213.419 33.012C213.419 31.356 213.275 29.844 212.987 28.476C212.699 27.108 212.255 25.932 211.655 24.948C211.055 23.94 210.287 23.172 209.351 22.644C208.439 22.092 207.359 21.828 206.111 21.852C204.887 21.876 203.855 22.212 203.015 22.86C202.175 23.484 201.503 24.3 200.999 25.308C200.495 26.292 200.135 27.372 199.919 28.548C199.703 29.724 199.595 30.864 199.595 31.968C199.595 33.096 199.715 34.296 199.955 35.568C200.219 36.84 200.627 38.04 201.179 39.168C201.731 40.296 202.475 41.208 203.411 41.904C204.347 42.6 205.499 42.948 206.867 42.948ZM225.391 45.576C224.095 45.576 223.051 45.3 222.259 44.748C221.491 44.196 221.107 43.404 221.107 42.372C221.107 41.532 221.335 40.8 221.791 40.176C222.271 39.528 223.027 39.204 224.059 39.204C224.899 39.204 225.511 39.432 225.895 39.888C226.279 40.344 226.471 40.896 226.471 41.544C226.471 41.952 226.375 42.288 226.183 42.552C226.303 42.624 226.483 42.66 226.723 42.66C227.059 42.66 227.455 42.36 227.911 41.76C228.367 41.16 228.811 40.224 229.243 38.952C229.699 37.656 230.095 36 230.431 33.984C230.767 31.944 230.971 29.496 231.043 26.64L231.151 22.464L230.251 22.5L227.011 22.572V19.8H246.883V22.176C246.355 22.2 245.899 22.272 245.515 22.392C245.131 22.512 244.831 22.788 244.615 23.22C244.423 23.628 244.327 24.324 244.327 25.308V39.096C244.327 39.744 244.315 40.368 244.291 40.968C244.267 41.568 244.231 42.024 244.183 42.336C244.591 42.288 245.083 42.264 245.659 42.264C246.235 42.24 246.643 42.228 246.883 42.228V45H236.551V42.624C237.103 42.6 237.559 42.528 237.919 42.408C238.303 42.288 238.591 42.012 238.783 41.58C238.999 41.148 239.107 40.452 239.107 39.492V22.5L236.227 22.608C235.411 22.632 234.811 22.8 234.427 23.112C234.043 23.4 233.839 23.94 233.815 24.732C233.743 27.828 233.539 30.54 233.203 32.868C232.891 35.196 232.471 37.176 231.943 38.808C231.415 40.416 230.803 41.724 230.107 42.732C229.411 43.716 228.655 44.436 227.839 44.892C227.047 45.348 226.231 45.576 225.391 45.576Z" fill="#112437"/>
<path d="M279.229 27.864C278.917 25.872 278.245 24.372 277.213 23.364C276.205 22.356 274.861 21.84 273.181 21.816C271.933 21.816 270.841 22.104 269.905 22.68C268.969 23.256 268.189 24.024 267.565 24.984C266.965 25.944 266.509 27.036 266.197 28.26C265.909 29.484 265.765 30.744 265.765 32.04C265.765 34.104 266.053 35.94 266.629 37.548C267.229 39.132 268.093 40.38 269.221 41.292C270.349 42.204 271.717 42.66 273.325 42.66C274.837 42.66 276.337 42.276 277.825 41.508C279.313 40.716 280.561 39.624 281.569 38.232L283.297 39.816C282.121 41.424 280.885 42.648 279.589 43.488C278.293 44.304 277.021 44.856 275.773 45.144C274.549 45.432 273.445 45.576 272.461 45.576C270.613 45.576 268.933 45.252 267.421 44.604C265.909 43.932 264.601 43.02 263.497 41.868C262.417 40.692 261.577 39.336 260.977 37.8C260.401 36.24 260.113 34.56 260.113 32.76C260.113 31.128 260.377 29.508 260.905 27.9C261.433 26.292 262.213 24.84 263.245 23.544C264.301 22.224 265.621 21.18 267.205 20.412C268.789 19.62 270.625 19.224 272.713 19.224C273.649 19.224 274.669 19.38 275.773 19.692C276.901 19.98 277.957 20.412 278.941 20.988L278.797 19.476H281.569V27.864H279.229ZM297.426 45.576C295.146 45.576 293.202 45.192 291.594 44.424C290.01 43.656 288.726 42.636 287.742 41.364C286.758 40.068 286.038 38.64 285.582 37.08C285.126 35.52 284.898 33.96 284.898 32.4C284.898 30.888 285.15 29.364 285.654 27.828C286.182 26.268 286.962 24.84 287.994 23.544C289.05 22.248 290.37 21.204 291.954 20.412C293.538 19.62 295.398 19.224 297.534 19.224C299.718 19.224 301.602 19.62 303.186 20.412C304.77 21.204 306.066 22.26 307.074 23.58C308.082 24.876 308.826 26.292 309.306 27.828C309.81 29.364 310.062 30.888 310.062 32.4C310.062 33.888 309.798 35.4 309.27 36.936C308.766 38.472 307.986 39.9 306.93 41.22C305.898 42.516 304.59 43.572 303.006 44.388C301.422 45.18 299.562 45.576 297.426 45.576ZM297.822 42.948C299.07 42.948 300.114 42.648 300.954 42.048C301.794 41.424 302.466 40.62 302.97 39.636C303.474 38.652 303.834 37.584 304.05 36.432C304.266 35.256 304.374 34.116 304.374 33.012C304.374 31.356 304.23 29.844 303.942 28.476C303.654 27.108 303.21 25.932 302.61 24.948C302.01 23.94 301.242 23.172 300.306 22.644C299.394 22.092 298.314 21.828 297.066 21.852C295.842 21.876 294.81 22.212 293.97 22.86C293.13 23.484 292.458 24.3 291.954 25.308C291.45 26.292 291.09 27.372 290.874 28.548C290.658 29.724 290.55 30.864 290.55 31.968C290.55 33.096 290.67 34.296 290.91 35.568C291.174 36.84 291.582 38.04 292.134 39.168C292.686 40.296 293.43 41.208 294.366 41.904C295.302 42.6 296.454 42.948 297.822 42.948ZM324.924 36.324C324.924 35.316 324.768 34.596 324.456 34.164C324.144 33.708 323.712 33.42 323.16 33.3C322.632 33.18 322.044 33.132 321.396 33.156L320.46 33.192V39.096C320.46 39.744 320.448 40.356 320.424 40.932C320.4 41.508 320.364 41.952 320.316 42.264H325.14C325.86 42.264 326.556 42.108 327.228 41.796C327.9 41.46 328.452 40.92 328.884 40.176C329.316 39.408 329.532 38.376 329.532 37.08H331.872L331.692 45H312.684V42.624C313.236 42.6 313.692 42.528 314.052 42.408C314.436 42.288 314.724 42.012 314.916 41.58C315.132 41.148 315.24 40.452 315.24 39.492V25.704C315.24 25.056 315.252 24.432 315.276 23.832C315.324 23.232 315.36 22.776 315.384 22.464C315 22.488 314.52 22.512 313.944 22.536C313.368 22.536 312.948 22.548 312.684 22.572V19.8H330.684L330.9 26.784H328.524C328.524 25.464 328.296 24.468 327.84 23.796C327.384 23.124 326.82 22.68 326.148 22.464C325.476 22.224 324.816 22.116 324.168 22.14L322.872 22.176C322.368 22.176 321.936 22.248 321.576 22.392C321.216 22.512 320.94 22.8 320.748 23.256C320.556 23.688 320.46 24.372 320.46 25.308V30.708H324.672L324.528 27.576H327.3V36.324H324.924ZM319.416 16.308C318.768 16.308 318.204 16.044 317.724 15.516C317.244 14.988 317.004 14.352 317.004 13.608C317.004 12.84 317.244 12.192 317.724 11.664C318.228 11.112 318.804 10.836 319.452 10.836C320.124 10.836 320.688 11.112 321.144 11.664C321.6 12.192 321.828 12.84 321.828 13.608C321.828 14.352 321.588 14.988 321.108 15.516C320.628 16.044 320.064 16.308 319.416 16.308ZM325.68 16.308C325.056 16.308 324.504 16.044 324.024 15.516C323.544 14.988 323.304 14.352 323.304 13.608C323.304 12.84 323.544 12.192 324.024 11.664C324.528 11.112 325.092 10.836 325.716 10.836C326.412 10.836 326.976 11.112 327.408 11.664C327.864 12.192 328.092 12.84 328.092 13.608C328.092 14.352 327.852 14.988 327.372 15.516C326.892 16.044 326.328 16.308 325.68 16.308ZM338.389 45.576C337.093 45.576 336.049 45.3 335.257 44.748C334.489 44.196 334.105 43.404 334.105 42.372C334.105 41.532 334.333 40.8 334.789 40.176C335.269 39.528 336.025 39.204 337.057 39.204C337.897 39.204 338.509 39.432 338.893 39.888C339.277 40.344 339.469 40.896 339.469 41.544C339.469 41.952 339.373 42.288 339.181 42.552C339.301 42.624 339.481 42.66 339.721 42.66C340.057 42.66 340.453 42.36 340.909 41.76C341.365 41.16 341.809 40.224 342.241 38.952C342.697 37.656 343.093 36 343.429 33.984C343.765 31.944 343.969 29.496 344.041 26.64L344.149 22.464L343.249 22.5L340.009 22.572V19.8H359.881V22.176C359.353 22.2 358.897 22.272 358.513 22.392C358.129 22.512 357.829 22.788 357.613 23.22C357.421 23.628 357.325 24.324 357.325 25.308V39.096C357.325 39.744 357.313 40.368 357.289 40.968C357.265 41.568 357.229 42.024 357.181 42.336C357.589 42.288 358.081 42.264 358.657 42.264C359.233 42.24 359.641 42.228 359.881 42.228V45H349.549V42.624C350.101 42.6 350.557 42.528 350.917 42.408C351.301 42.288 351.589 42.012 351.781 41.58C351.997 41.148 352.105 40.452 352.105 39.492V22.5L349.225 22.608C348.409 22.632 347.809 22.8 347.425 23.112C347.041 23.4 346.837 23.94 346.813 24.732C346.741 27.828 346.537 30.54 346.201 32.868C345.889 35.196 345.469 37.176 344.941 38.808C344.413 40.416 343.801 41.724 343.105 42.732C342.409 43.716 341.653 44.436 340.837 44.892C340.045 45.348 339.229 45.576 338.389 45.576Z" fill="#112437"/>
<defs>
<clipPath id="clip0_479_999">
<rect width="70.7692" height="64" fill="white"/>
</clipPath>
</defs>
</svg>
