<svg width="30" height="28" viewBox="0 0 30 28" fill="none" xmlns="http://www.w3.org/2000/svg">
<g clip-path="url(#clip0_891_14594)">
<path d="M0 15.8807C0.0138516 15.8358 0.0236672 15.7897 0.0293292 15.743C0.0487054 15.0131 0.144951 14.2872 0.316463 13.5775C0.444045 13.0515 0.591278 12.5305 0.731471 12.0012L0.38128 11.936C0.417355 11.799 0.496251 11.769 0.61914 11.8092C0.74203 11.8495 0.826791 11.8304 0.883103 11.6828C1.28429 10.6286 1.81641 9.62924 2.46688 8.70842C2.73935 8.32206 3.02942 7.94541 3.33825 7.58787C3.71953 7.14683 4.11343 6.71079 4.53225 6.30415C5.13911 5.71114 5.79219 5.16762 6.48528 4.67876C6.85835 4.41736 7.23494 4.16068 7.61768 3.89693L7.12202 3.18979L7.35401 3.10159L7.83091 3.76139C8.3383 3.495 8.82957 3.22331 9.33286 2.97574C10.3107 2.49724 11.3279 2.10423 12.3731 1.8011C13.2237 1.55206 14.0854 1.33624 14.965 1.2101C15.4175 1.14512 15.8709 1.08484 16.3252 1.03604C16.6241 1.00399 16.9259 0.975466 17.2259 0.981934C17.6521 0.991049 18.0765 1.03339 18.5032 1.06279C18.5942 1.06897 18.6848 1.08867 18.7751 1.0872C18.803 1.0872 18.8426 1.04133 18.8549 1.0081C18.911 0.865502 18.96 0.720167 19.0015 0.572647C19.0367 0.441216 19.096 0.371531 19.2532 0.434747L19.0294 1.11484C20.6786 1.35564 22.27 1.89705 23.7247 2.71229C25.205 3.54116 26.5089 4.58937 27.5815 5.9272C27.656 5.88163 27.7211 5.84193 27.7868 5.80224C27.9865 5.67904 27.9863 5.67904 28.1455 5.87045L27.7408 6.12273C27.9033 6.36589 28.0634 6.59318 28.2121 6.8284C28.7556 7.68609 29.1793 8.61446 29.4712 9.58756C29.6636 10.2224 29.8141 10.8669 29.8839 11.5282C29.9164 11.836 29.9425 12.1456 29.9718 12.4529C29.9783 12.4791 29.9882 12.5044 30.0012 12.5281V13.8807C29.9891 13.9209 29.9793 13.9617 29.9718 14.003C29.9012 14.5828 29.8507 15.1659 29.7557 15.7416C29.6859 16.1656 29.5583 16.5801 29.4513 17.0206L29.9463 17.1585L29.905 17.3937L29.365 17.2735C29.2738 17.5202 29.1864 17.768 29.0908 18.0124C28.6921 19.0227 28.1714 19.9803 27.5402 20.8636C27.0137 21.6092 26.4265 22.3097 25.7845 22.9579C25.3874 23.3584 24.9601 23.7292 24.5374 24.1046C23.9332 24.6398 23.2783 25.1082 22.6017 25.5454C22.3644 25.698 22.1216 25.845 21.8796 25.9964L22.0304 26.2478L21.8837 26.3398L16.4376 17.4763C15.9786 17.6195 15.5454 17.7742 15.1016 17.8856C14.847 17.9494 14.5755 17.9577 14.3097 17.9638C14.0707 17.9694 13.9285 17.758 14.0038 17.5152C14.1798 16.9424 14.3658 16.3729 14.552 15.8033C14.6324 15.5575 14.7221 15.3149 14.8086 15.0712C14.8907 14.8395 15.0031 14.7422 15.2404 14.766C15.6037 14.8025 15.9648 14.8648 16.3255 14.9218C16.7148 14.9834 17.1036 15.0487 17.492 15.1177C17.6949 15.1535 17.8988 15.1888 18.0973 15.2432C18.341 15.3099 18.4279 15.4864 18.3003 15.7084C18.1643 15.9409 18.006 16.1595 17.8275 16.3611C17.4802 16.758 17.0591 17.0685 16.6062 17.3335L21.8726 25.9597C22.2782 25.6909 22.6806 25.4436 23.0616 25.1658C23.51 24.8397 23.9579 24.5086 24.3729 24.142C24.8844 23.6901 25.3827 23.219 25.8496 22.7212C26.582 21.9413 27.2308 21.0865 27.7854 20.1708C28.1996 19.4817 28.5478 18.7547 28.8254 17.9997C28.9207 17.7433 29.0013 17.4816 29.0949 17.2082C24.2691 16.1132 19.433 15.0941 14.5541 14.2026L9.92091 27.588L9.75373 27.5562L14.3015 14.1606L13.3838 13.9989C12.7274 13.8827 12.0716 13.7636 11.4146 13.6516C10.9747 13.5764 10.5321 13.5123 10.0913 13.4396C9.6417 13.3655 9.19325 13.2844 8.74217 13.2115C8.34329 13.1468 7.94295 13.0918 7.54407 13.028C7.08448 12.9545 6.62606 12.873 6.16559 12.8001C5.81921 12.7451 5.47108 12.6993 5.12441 12.6463C4.76805 12.5917 4.41288 12.5311 4.05653 12.4773C3.76177 12.4326 3.46584 12.3955 3.17078 12.3523C2.81414 12.3 2.45779 12.2435 2.10144 12.1906C1.7973 12.1453 1.49374 12.0939 1.18813 12.0615C0.93443 12.0345 0.937656 12.0468 0.843509 12.3023C0.590398 12.9898 0.424687 13.7004 0.296519 14.4193C0.235974 14.7667 0.196211 15.1174 0.177442 15.4696C0.146646 16.0491 0.112624 16.6301 0.124943 17.2094C0.134621 17.6722 0.207944 18.1341 0.261324 18.5951C0.292119 18.8621 0.339339 19.1273 0.349311 19.4011C0.327901 19.3005 0.301505 19.2008 0.285667 19.0994C0.21733 18.6707 0.1443 18.2438 0.0909206 17.8136C0.055139 17.524 0.0486865 17.2326 0.0275695 16.9421C0.0218706 16.9201 0.0125527 16.8993 0 16.8804C0 16.5471 0 16.2139 0 15.8807ZM18.5208 11.8786C18.7261 12.2274 18.8833 12.5825 18.9285 12.9751C18.9578 13.2206 18.92 13.4529 18.749 13.6513C18.4557 13.9912 18.0695 13.9609 17.6873 13.9236C17.4157 13.8971 17.1473 13.8354 16.8775 13.7916C16.5074 13.7304 16.134 13.6863 15.7683 13.6049C15.4835 13.5417 15.3612 13.4385 15.4662 13.1256C15.7086 12.4033 15.9586 11.6836 16.2161 10.9666C16.3241 10.6646 16.5267 10.5208 16.7734 10.5617C16.9049 10.5872 17.0322 10.6305 17.152 10.6905C17.6272 10.9139 18.0202 11.2447 18.3495 11.6416L27.2448 6.12714C26.1978 4.83959 24.9246 3.82578 23.4734 3.03014C22.0389 2.2442 20.5184 1.70966 18.9115 1.46385L14.6503 13.9704C19.5236 14.8145 24.3535 15.8133 29.1773 16.9653C29.2694 16.5166 29.3788 16.0871 29.4413 15.6507C29.5293 15.0474 29.6108 14.4402 29.6384 13.8319C29.6627 13.2979 29.6284 12.7587 29.5832 12.2247C29.5446 11.7241 29.4751 11.2263 29.3753 10.7343C29.1213 9.52876 28.6943 8.38704 28.0622 7.32766C27.8827 7.02657 27.6833 6.73725 27.4885 6.44557C27.4431 6.37765 27.4006 6.32796 27.2914 6.39882C26.4717 6.91925 25.6446 7.42792 24.8202 7.94041C23.5424 8.73527 22.265 9.53072 20.988 10.3267C20.1694 10.8384 19.3535 11.3556 18.5208 11.8786ZM0.999834 11.8545C1.05468 11.8645 1.10073 11.8748 1.14648 11.881C1.38962 11.9136 1.63305 11.9436 1.87619 11.978C2.26246 12.0327 2.64814 12.0906 3.03411 12.1456C3.33473 12.1885 3.63595 12.2268 3.93628 12.2709C4.30729 12.3253 4.67743 12.3847 5.04844 12.4396C5.40538 12.4923 5.7629 12.5396 6.11955 12.5934C6.54687 12.6578 6.97361 12.7272 7.40094 12.7925C7.74321 12.8448 8.08607 12.8919 8.42746 12.9457C8.89673 13.0198 9.366 13.1 9.83527 13.1741C10.291 13.2462 10.7483 13.3103 11.2041 13.3844C11.6496 13.457 12.0936 13.539 12.5385 13.6152C13.0509 13.7034 13.5651 13.7842 14.0754 13.8774C14.3807 13.933 14.381 13.9412 14.4749 13.6693C15.1058 11.8457 15.7361 10.0216 16.3657 8.1971C16.6834 7.28061 17.0086 6.36677 17.3268 5.45058C17.6397 4.54732 17.9511 3.64328 18.261 2.73846C18.4076 2.30889 18.5543 1.87902 18.7094 1.42886C18.366 1.39416 18.0413 1.34065 17.7157 1.33242C16.9435 1.31536 16.1701 1.30301 15.4046 1.44415C14.8429 1.54853 14.274 1.62056 13.7179 1.74847C12.142 2.1092 10.6155 2.66011 9.17184 3.38915C8.78645 3.58438 8.40928 3.79579 8.0151 4.00661L12.7767 10.759C13.2677 10.5143 13.7865 10.3285 14.3408 10.2744C14.6277 10.245 14.8101 10.3306 14.7781 10.6349C14.7695 10.7017 14.7541 10.7674 14.7321 10.831C14.6259 11.1594 14.5191 11.4876 14.4095 11.8148C14.2874 12.178 14.1678 12.5423 14.0355 12.9027C14.0123 12.973 13.965 13.0328 13.9019 13.0714C13.8389 13.11 13.7642 13.125 13.6912 13.1136C13.4565 13.0877 13.2254 13.0495 12.994 13.0092C12.5356 12.9298 12.0769 12.8507 11.6202 12.7607C11.3909 12.7154 11.1583 12.6663 10.941 12.5822C10.68 12.4811 10.6439 12.2829 10.855 12.1036C11.1891 11.8204 11.5384 11.5549 11.8895 11.2932C12.0836 11.1486 12.2948 11.0265 12.5054 10.8898C12.0429 10.2241 11.5906 9.57139 11.1366 8.91982C10.4755 7.97168 9.81356 7.02422 9.15072 6.07745C8.72056 5.46136 8.28981 4.84537 7.85848 4.22948C7.81478 4.16656 7.77841 4.15303 7.70919 4.19655C6.90586 4.70051 6.12864 5.24006 5.40597 5.85722C4.86191 6.32208 4.31521 6.78429 3.85152 7.33236C3.47317 7.77929 3.08896 8.22298 2.73495 8.68901C2.00231 9.65284 1.44916 10.7184 0.999834 11.8557V11.8545Z" fill="white"/>
<path d="M16.7259 21.2035C16.6194 21.0859 16.5085 20.9783 16.4202 20.8557C16.3698 20.7857 16.3563 20.6892 16.3261 20.6049C16.4094 20.6281 16.495 20.6454 16.5757 20.6763C16.6452 20.7083 16.7126 20.7448 16.7775 20.7854C16.7335 20.5687 16.5997 20.414 16.466 20.2685C16.368 20.1683 16.2548 20.0842 16.1308 20.0192C15.9524 19.9192 15.8304 19.9465 15.8448 20.2076C15.4949 20.1812 15.4929 20.182 15.458 20.3546C15.5888 20.3429 15.6263 20.3679 15.6835 20.5102C15.5741 20.5249 15.4656 20.5355 15.3588 20.5552C15.2397 20.5772 15.196 20.661 15.2609 20.761C15.3955 20.9686 15.5964 21.0965 15.8325 21.2129C15.809 21.1247 15.7949 21.0562 15.7738 20.9912C15.7328 20.8707 15.8123 20.8636 15.8865 20.8815C15.9607 20.8995 16.0249 20.9439 16.0976 20.9789C16.0844 21.0236 16.0709 21.0635 16.061 21.1041C16.036 21.207 15.99 21.3038 16.0654 21.4131C16.1275 21.5034 16.1094 21.6075 16.036 21.6954C15.9372 21.8145 15.8601 21.9636 15.6603 21.9633C15.6747 21.9045 15.6826 21.8592 15.6973 21.8163C15.7398 21.6875 15.7281 21.5696 15.6028 21.499C15.4873 21.4337 15.37 21.4484 15.2708 21.5457C15.2269 21.5907 15.198 21.6483 15.1882 21.7105C15.1784 21.7727 15.1882 21.8364 15.2163 21.8927C15.3357 22.1094 15.3239 22.1003 15.1653 22.3043C14.9978 22.5199 14.8558 22.7551 14.6986 22.9877C14.5408 22.9521 14.3737 22.9153 14.2074 22.8753C14.1815 22.8692 14.1428 22.8506 14.1384 22.8312C14.1062 22.6822 14.0114 22.7363 13.9261 22.7616C13.6425 22.8456 13.4709 23.0641 13.3152 23.2929C13.2456 23.3933 13.1965 23.5065 13.1706 23.626C13.1445 23.7583 13.2495 23.8242 13.3589 23.8818C13.4727 23.9406 13.5172 23.8586 13.5782 23.8009C13.6076 23.7742 13.6334 23.7454 13.6612 23.7177C13.8715 23.5099 14.0132 23.5228 14.1584 23.7824C14.2643 23.9727 14.3144 24.0732 14.1229 24.2911C13.8707 24.5778 13.7416 24.9327 13.6351 25.2961C13.5639 25.5425 13.5363 25.5542 13.2864 25.5198C13.0474 25.4869 12.8072 25.464 12.5679 25.4346C12.4925 25.4255 12.4473 25.4534 12.4341 25.5284C12.4203 25.608 12.4089 25.6883 12.3922 25.7974C12.5306 25.783 12.6485 25.7648 12.767 25.7598C12.9136 25.7536 13.0603 25.7598 13.2069 25.7577C13.812 25.7486 14.4168 25.7342 15.0218 25.7283C15.6703 25.7233 16.3191 25.738 16.9672 25.7236C17.4177 25.7136 17.8674 25.6686 18.3164 25.6401C18.3698 25.6369 18.4234 25.6401 18.5059 25.6401C18.346 25.8365 18.1451 25.9397 17.9515 26.0482C17.496 26.307 16.9881 26.4128 16.4827 26.5213C15.9774 26.6298 15.4729 26.7465 14.9641 26.838C14.5807 26.9071 14.1921 26.9512 13.8041 26.9897C13.4762 27.0223 13.1453 27.0529 12.8166 27.0453C12.4664 27.0373 12.1127 27.0067 11.7883 26.8444C11.3979 26.6483 11.2897 26.3566 11.4096 25.9512C11.6366 25.1785 11.9018 24.4169 12.1479 23.6498C12.3722 22.9503 12.5878 22.2482 12.8154 21.5496C13.0169 20.9306 13.2621 20.3302 13.6686 19.8127C14.0587 19.3164 14.5353 18.938 15.1796 18.8548C15.6515 18.7939 16.085 18.9354 16.4751 19.21C16.976 19.5628 17.3119 20.0486 17.5896 20.5813C18.0143 21.3923 18.4448 22.2003 18.8607 23.0159C19.0857 23.4569 19.1901 23.9344 19.1449 24.4316C19.1115 24.7992 18.9649 25.1276 18.7387 25.4205C18.6598 25.5228 18.5554 25.4925 18.4575 25.4904C18.2873 25.4866 18.1175 25.4657 17.9474 25.4649C17.3561 25.4616 16.7649 25.4649 16.1736 25.4649H15.9894L16.5719 24.6498C16.6728 24.6548 16.7452 24.7192 16.7772 24.8421C16.7974 24.9206 16.832 24.9956 16.8578 25.0729C16.9488 25.3428 16.9713 25.3587 17.2646 25.3402C17.269 25.2196 17.3019 25.1108 17.1403 25.0326C17.0758 25.0015 17.0661 24.8477 17.0397 24.7477C17.0215 24.6783 17.0277 24.6007 17.0033 24.5351C16.9825 24.4787 16.9376 24.3928 16.8968 24.3881C16.7763 24.3767 16.7734 24.3123 16.7707 24.2196C16.7678 24.102 16.7481 23.9844 16.7338 23.8474C16.8103 23.8761 16.8795 23.9214 16.9366 23.9799C16.9938 24.0384 17.0374 24.1088 17.0643 24.1861C17.1315 24.3661 17.1764 24.5569 17.2632 24.726C17.3113 24.8198 17.4151 24.9024 17.5134 24.9482C17.6538 25.0129 17.76 24.9244 17.8521 24.7912C17.6421 24.6375 17.5527 24.4149 17.4893 24.172C17.4283 23.9368 17.2717 23.7665 17.0719 23.6357C17.0409 23.6129 17.006 23.5958 16.969 23.5851C16.6757 23.5199 16.4009 23.3981 16.1211 23.2911C15.9023 23.2079 15.8621 23.1673 15.8642 22.9342C15.8659 22.7195 15.8319 22.4955 15.9979 22.3167C16.0806 22.2285 16.1516 22.1241 16.2443 22.0468C16.4003 21.9171 16.4384 21.7577 16.4238 21.5657C16.415 21.4481 16.4346 21.3305 16.442 21.2035C16.5414 21.2611 16.6549 21.3652 16.7259 21.2035Z" fill="white"/>
<path d="M8.85088 24.616C8.91746 24.4896 8.98961 24.3902 9.02421 24.2791C9.08287 24.0903 8.98169 23.9004 8.73679 23.7634C8.51565 23.6396 8.27984 23.5414 8.04843 23.437C7.84929 23.3473 7.68181 23.2268 7.59119 23.0192C7.53605 22.8933 7.5642 22.8674 7.69736 22.8445C7.87334 22.8151 8.04344 22.7563 8.23262 22.7046C8.33762 22.8269 8.38102 22.8254 8.49453 22.6575C8.5702 22.5458 8.62534 22.4161 8.71655 22.3203C8.79134 22.2418 8.90132 22.1912 9.00368 22.1468C9.06615 22.1197 9.14388 22.1277 9.22571 22.1174C9.24888 22.1894 9.26941 22.2676 9.29991 22.342C9.31017 22.367 9.3442 22.382 9.36766 22.4008C9.38115 22.3682 9.41371 22.3282 9.40461 22.3044C9.37851 22.2379 9.3351 22.178 9.2873 22.0986L9.57766 22.0077L9.45594 21.7654C9.39494 21.8019 9.34596 21.8298 9.29815 21.8601C9.17115 21.9401 9.13361 21.926 9.08903 21.781C9.07525 21.7357 9.0597 21.691 9.03976 21.634L8.9374 21.6869L9.09402 21.9448C9.00603 22.0001 8.91804 22.0595 8.82712 22.1121C8.81388 22.1189 8.7992 22.1225 8.7843 22.1225C8.7694 22.1225 8.75472 22.1189 8.74148 22.1121C8.65613 22.028 8.5655 22.0589 8.49394 22.1121C8.40419 22.18 8.32911 22.1603 8.24523 22.1147C8.18657 22.0827 8.14991 22.0853 8.08597 22.1397C8.00884 22.2068 7.88917 22.2318 7.78359 22.252C7.75924 22.2567 7.69091 22.1703 7.68768 22.1227C7.67595 21.9463 7.68475 21.7698 7.6827 21.5934C7.67976 21.3608 7.56538 21.2091 7.34599 21.1456C7.29555 21.1309 7.24246 21.1233 7.19378 21.1036C7.03452 21.0395 7.0178 20.948 7.13512 20.8237C7.35362 20.5961 7.32253 20.412 7.03217 20.2923C6.91486 20.2438 6.78405 20.223 6.65734 20.2041C6.47492 20.1765 6.34469 20.2668 6.27137 20.4261C6.23616 20.4966 6.22552 20.5769 6.24115 20.6542C6.25678 20.7315 6.29778 20.8013 6.3576 20.8525C6.59223 21.0621 6.53123 21.1594 6.24556 21.2085C5.9423 21.2606 5.79741 21.4567 5.74022 21.7454C5.69153 21.9895 5.61058 22.2282 5.57656 22.474C5.54723 22.6775 5.62232 22.761 5.8112 22.8377C5.84178 22.8516 5.87373 22.8621 5.90652 22.8692C6.18368 22.9171 6.21946 22.9574 6.08484 23.2847C6.00272 23.4843 5.88716 23.6701 5.80914 23.871C5.72291 24.0935 5.7977 24.2947 5.94435 24.4725C5.95843 24.4896 5.96957 24.5093 5.9992 24.5528C5.79184 24.5528 5.60794 24.5637 5.42698 24.5464C5.37096 24.5411 5.31348 24.4661 5.27095 24.4117C4.84656 23.8671 4.43712 23.312 4.13444 22.6872C3.93852 22.2826 3.769 21.8692 3.78249 21.4061C3.79393 20.9915 3.99073 20.6711 4.31482 20.4399C4.61188 20.2358 4.92099 20.0498 5.24045 19.8831C6.19658 19.367 7.1621 18.8678 8.11471 18.3476C8.57782 18.0951 9.05325 17.8875 9.57443 17.8002C10.1449 17.7046 10.6866 17.7846 11.1289 18.1856C11.3755 18.4085 11.5178 18.7069 11.5811 19.0383C11.7125 19.7296 11.5518 20.3797 11.3031 21.0151C10.8523 22.1638 10.3924 23.3085 9.94457 24.4584C9.9035 24.5637 9.83986 24.5775 9.75833 24.5799C9.57267 24.5849 9.38702 24.5778 9.20107 24.5831C9.09196 24.5875 8.97905 24.6043 8.85088 24.616ZM9.23861 18.8054L9.20928 18.8487C9.24418 18.9198 9.2785 18.9913 9.31428 19.0618C9.45095 19.3309 9.3266 19.6878 9.0729 19.7637C8.92685 19.8042 8.7776 19.832 8.6268 19.8469C8.52826 19.8584 8.49717 19.8678 8.52532 19.988C8.58398 20.2347 9.06645 20.4291 9.28612 20.3926C9.52985 20.3514 9.71404 20.2141 9.86068 20.0289C10.0035 19.8481 10.0977 19.6337 9.98357 19.4114C9.90398 19.2578 9.79424 19.1219 9.66095 19.0119C9.54334 18.9148 9.38174 18.8719 9.23861 18.8054Z" fill="white"/>
<path d="M19.8186 21.4141C19.3534 20.6432 18.8633 19.8972 18.4433 19.1134C18.1137 18.4983 18.0969 17.8408 18.5073 17.2316C18.8199 16.7673 19.2877 16.5259 19.8124 16.3813C20.3338 16.2418 20.8784 16.2123 21.4117 16.2945C22.1957 16.408 22.9759 16.5459 23.7581 16.6723C24.374 16.772 24.9914 16.8632 25.6058 16.9714C26.0346 17.0469 26.4666 17.1198 26.8529 17.346C27.138 17.5127 27.2829 17.7317 27.2392 18.0722L27.138 18.0946C27.13 18.084 27.1201 18.0772 27.1192 18.069C27.0937 17.8843 26.9863 17.7938 26.7851 17.7917C26.6232 17.7899 26.4625 17.787 26.2994 17.7917C26.1364 17.7964 26.0325 17.9243 26.0592 18.0731C25.9592 18.084 25.8484 18.0713 25.7613 18.111C25.602 18.1836 25.4603 18.293 25.2715 18.2851C25.2374 18.2851 25.2019 18.3145 25.1673 18.3312C25.2697 18.5882 25.2694 18.585 25.5598 18.5621C25.6126 18.5579 25.6695 18.6117 25.7228 18.6091C25.9487 18.5973 26.1745 18.5797 26.3974 18.5503C26.4388 18.545 26.5009 18.4791 26.5015 18.4406C26.5021 18.4021 26.4499 18.3424 26.4065 18.316C26.3094 18.2572 26.1801 18.2824 26.0742 18.3648C26.1349 18.4492 26.1305 18.445 26.1889 18.3874C26.219 18.3624 26.2575 18.3499 26.2965 18.3524C26.3197 18.3542 26.3625 18.4024 26.3578 18.4142C26.3431 18.4506 26.315 18.4985 26.283 18.5071C26.2244 18.5224 26.1502 18.5327 26.1009 18.5071C26.073 18.492 26.0487 18.471 26.0296 18.4456C26.0106 18.4203 25.9971 18.3911 25.9903 18.3601C25.9859 18.3201 26.0466 18.2522 26.0936 18.2313C26.1815 18.1928 26.2525 18.1778 26.2695 18.051C26.2915 17.8829 26.6356 17.8261 26.7696 17.9567C26.7989 17.9861 26.8098 18.0743 26.7878 18.1016C26.7431 18.1504 26.6832 18.1824 26.618 18.1925C26.5778 18.1981 26.5265 18.1513 26.4883 18.1181C26.4816 18.1122 26.5212 18.0299 26.5306 18.0319C26.5814 18.0461 26.6306 18.0659 26.6772 18.0907C26.6757 18.0669 26.6716 18.0434 26.6649 18.0205C26.5874 18.0161 26.5097 18.0221 26.4338 18.0384C26.4165 18.0431 26.3983 18.1484 26.4191 18.1701C26.4713 18.2251 26.5276 18.3013 26.6306 18.2448C26.7658 18.1707 26.9098 18.1334 27.0514 18.2272C27.0946 18.2566 27.1544 18.313 27.1488 18.3477C27.1397 18.4039 27.0902 18.4589 27.0435 18.5015C27.0278 18.5123 27.0099 18.5196 26.991 18.5228C26.9722 18.526 26.9529 18.525 26.9344 18.52C26.88 18.4989 26.8276 18.4727 26.7781 18.4418C26.7957 18.4124 26.8151 18.3536 26.8309 18.3536C26.8822 18.3568 26.9321 18.3812 27.0227 18.4103C27.0855 18.3768 27.0192 18.328 26.969 18.2989C26.9353 18.2792 26.8837 18.2868 26.8403 18.2871C26.7423 18.2871 26.6449 18.3139 26.6332 18.4247C26.6194 18.5532 26.74 18.5585 26.8241 18.5773C26.889 18.5918 26.9596 18.5803 27.0635 18.5803C26.9198 18.8073 26.784 19.0093 26.6614 19.2189C26.4122 19.6514 26.1017 20.0453 25.7395 20.3883C25.3876 20.7173 25.0266 21.0351 24.667 21.3542C24.6333 21.3884 24.5902 21.4119 24.5432 21.4215C24.4962 21.4312 24.4474 21.4267 24.403 21.4085C24.2122 21.3454 24.0172 21.2957 23.8194 21.2601C23.7729 21.2522 23.7287 21.2345 23.6897 21.208C23.6506 21.1815 23.6178 21.1469 23.5932 21.1066C23.2999 20.6797 23.004 20.2521 22.6984 19.8331C22.491 19.5485 22.2664 19.2768 22.0473 19.001C21.9939 18.934 21.9886 18.8746 22.0473 18.809C22.1714 18.6664 22.296 18.5244 22.4157 18.378C22.4412 18.3465 22.4693 18.2754 22.4556 18.2604C22.3969 18.1998 22.3459 18.2357 22.3001 18.2918C22.1826 18.4422 22.0534 18.5829 21.9135 18.7126C21.9199 18.6853 21.9286 18.6586 21.9397 18.6329C22.0661 18.3959 22.1954 18.1604 22.3209 17.9225C22.3931 17.7855 22.3904 17.7841 22.2969 17.6503L21.7827 18.6229L21.7279 18.5988C21.7734 18.4262 21.8141 18.2524 21.8655 18.0816C21.9358 17.8464 22.0159 17.6168 22.0881 17.3833C22.0995 17.3463 22.0895 17.3027 22.0895 17.2622L22.0291 17.2495L21.6478 18.475C21.5777 18.3945 21.5085 18.3183 21.4425 18.2398C21.3293 18.1016 21.2258 17.9549 21.1041 17.8252C21.0498 17.7664 20.9609 17.7414 20.8879 17.7011L20.8448 17.7591C20.9404 17.879 21.0381 17.9972 21.131 18.1193C21.2797 18.3145 21.4472 18.5015 21.5607 18.715C21.6044 18.7976 21.5607 18.9796 21.4921 19.061C20.9504 19.7079 20.5776 20.4659 20.0975 21.1524C20.0913 21.1599 20.0878 21.1692 20.0875 21.1789C20.1142 21.3724 19.9555 21.3627 19.8186 21.4141ZM23.8343 18.6656C23.5607 18.6858 23.561 18.6861 23.3565 18.9064C23.3394 18.9217 23.3174 18.9305 23.2944 18.9314C23.2064 18.9364 23.107 18.9149 23.0304 18.9461C22.9539 18.9772 22.8635 19.0493 22.8318 19.1251C22.8166 19.1616 22.9099 19.2798 22.9756 19.3051C23.0744 19.3436 23.1923 19.3345 23.3023 19.3433C23.3279 19.3418 23.3535 19.3418 23.3791 19.3433C23.4753 19.3639 23.5704 19.4045 23.6666 19.4071C23.8132 19.4115 23.9599 19.3839 24.1088 19.3821C24.3185 19.3792 24.4385 19.2995 24.4294 19.1554C24.4212 19.0278 24.2798 18.9452 24.0868 18.9734C24.0317 18.9813 23.9836 19.0384 23.9323 19.0731L24.0684 19.1648C24.1027 19.0987 24.127 19.0328 24.1376 19.0349C24.1938 19.0506 24.2482 19.0721 24.3001 19.099C24.1675 19.2554 24.0308 19.303 23.9035 19.2272C23.8484 19.1942 23.7821 19.1013 23.7924 19.0507C23.8305 18.8611 23.9956 18.8484 24.154 18.8449C24.1273 18.6979 24.1851 18.5909 24.3156 18.5394C24.4799 18.4747 24.6969 18.5062 24.7476 18.615C24.769 18.6611 24.7635 18.7682 24.7421 18.777C24.6518 18.8103 24.5569 18.8289 24.4608 18.8323C24.4406 18.8323 24.391 18.7555 24.4001 18.7308C24.4108 18.7115 24.4259 18.695 24.4442 18.6827C24.4625 18.6704 24.4835 18.6626 24.5054 18.66C24.5294 18.66 24.5567 18.7164 24.5969 18.7655L24.6743 18.6997C24.5297 18.5947 24.3611 18.5915 24.3174 18.6955C24.2317 18.8984 24.4482 18.8823 24.5206 18.9731C24.7051 18.8017 24.94 18.7967 25.1107 18.9087C25.1876 18.9587 25.2234 19.0325 25.1788 19.1075C25.1506 19.1593 25.107 19.201 25.0541 19.2268C25.0011 19.2526 24.9415 19.2613 24.8834 19.2516C24.8248 19.241 24.7773 19.1633 24.7248 19.1148C24.7834 19.0966 24.8421 19.0778 24.9007 19.0607C24.9054 19.0607 24.9136 19.0713 24.9268 19.0825L24.8799 19.1648L24.9227 19.1942L25.0204 19.0584C24.9737 19.0259 24.9247 18.997 24.8738 18.9719C24.8444 18.9596 24.806 18.9681 24.772 18.9702C24.6494 18.9778 24.5502 19.0646 24.5517 19.1613C24.5532 19.258 24.6511 19.3459 24.7723 19.3512C24.855 19.3548 24.9433 19.3368 25.0201 19.3595C25.1876 19.4086 25.3427 19.383 25.4973 19.3209C25.5369 19.3084 25.5783 19.302 25.6199 19.3021C25.7134 19.2962 25.8096 19.3054 25.8997 19.2848C25.9431 19.2748 26.0079 19.208 26.0041 19.1736C25.9974 19.1119 25.9586 19.0202 25.9108 19.0031C25.7407 18.9414 25.575 18.8855 25.4251 18.7726C25.3542 18.7197 25.2336 18.7341 25.1371 18.7182C25.1175 18.4295 24.8655 18.2372 24.6092 18.2998C24.5197 18.3184 24.4277 18.3221 24.337 18.3107C24.0599 18.2813 23.8285 18.4042 23.8343 18.6653V18.6656Z" fill="white"/>
<path d="M6.67833 16.7075H5.24999C5.24031 16.7075 5.23034 16.7075 5.22066 16.709C4.93294 16.7172 4.93294 16.7172 4.92327 17.0168L4.13138 17.0515C4.13138 16.9803 4.1261 16.9089 4.13138 16.8383C4.14076 16.7351 4.10029 16.7004 3.99763 16.7019C3.69466 16.7069 3.39169 16.7037 3.08843 16.7037H2.35197L2.33936 16.9315H1.91115C1.89033 16.7663 1.85631 16.6002 1.85249 16.4317C1.83578 15.9039 1.80498 15.375 1.82815 14.8483C1.84633 14.4346 1.92934 14.0251 2.16162 13.6605C2.40447 13.2782 2.88048 13.1159 3.3128 13.1938C3.66856 13.2582 4.02872 13.2979 4.38654 13.3514C4.81064 13.415 5.23416 13.4829 5.65826 13.5467C6.01607 13.6005 6.37536 13.6461 6.73229 13.7052C7.17751 13.779 7.63769 13.7872 8.05885 13.9716C8.4897 14.16 8.8264 14.4493 8.92729 14.9339C9.01528 15.3561 8.87861 15.7316 8.6252 16.0653C8.34226 16.432 7.98918 16.7384 7.58665 16.9665C7.52454 17.0029 7.45416 17.0228 7.38223 17.0242C7.22737 17.0242 7.07222 17.0089 6.91765 16.9948C6.80415 16.9842 6.68977 16.9698 6.70414 16.8054C6.70249 16.7713 6.6937 16.7379 6.67833 16.7075ZM6.56629 16.1288C6.54136 16.0018 6.52347 15.913 6.50763 15.8242C6.461 15.5799 6.33342 15.4126 6.1023 15.297C5.80373 15.15 5.5251 14.9618 5.23298 14.8004C4.88836 14.6102 4.57454 14.3006 4.10469 14.5217V14.11L3.9598 14.128C3.9598 14.2429 3.95188 14.3464 3.96215 14.4479C3.97182 14.5452 3.93282 14.5949 3.85304 14.6443C3.47684 14.8807 3.10319 15.1213 2.73208 15.3661C2.64145 15.4249 2.52677 15.4929 2.49128 15.5831C2.42852 15.7437 2.41796 15.9248 2.38365 16.1071L4.139 16.1715V15.9224H4.91975L4.93382 16.2367L6.56629 16.1288ZM7.62566 14.6028C7.62068 14.1142 7.36434 13.9077 7.05315 13.9142C6.63961 13.923 6.34925 14.1927 6.33693 14.6134C6.32726 14.9707 6.63991 15.2603 7.01151 15.2647C7.34879 15.2679 7.66555 14.9489 7.62566 14.6028ZM4.12668 16.2547L2.38394 16.1715L2.35901 16.589H4.12668V16.2547ZM4.92737 16.6619L6.66396 16.5961C6.63697 16.4737 6.6053 16.3902 6.60324 16.3073C6.6009 16.1897 6.53168 16.2006 6.4566 16.2071C6.01666 16.2453 5.57672 16.2882 5.13473 16.3194C4.92649 16.3341 4.9259 16.3238 4.92942 16.5299C4.92737 16.5631 4.92737 16.5963 4.92737 16.6619Z" fill="white"/>
<path d="M0.271221 21.9182L0.15625 21.7036L10.4998 16.1179C10.4059 15.8312 10.2945 15.5505 10.2238 15.2597C10.1455 14.9395 10.1109 14.6099 10.1769 14.2791C10.215 14.0877 10.3866 13.9324 10.5925 13.9451C10.8124 13.9586 11.0324 14.0003 11.2494 14.0374C11.6756 14.11 12.1 14.187 12.5267 14.2647C12.7813 14.3111 13.0374 14.3529 13.2893 14.4137C13.4896 14.4628 13.5559 14.5849 13.4914 14.7824C13.2763 15.4442 13.0554 16.1042 12.8288 16.7624C12.7685 16.9396 12.6956 17.1121 12.6106 17.2788C12.4657 17.561 12.2587 17.6248 11.9765 17.4905C11.4765 17.2523 11.0723 16.8977 10.7473 16.4528C10.6931 16.3787 10.6532 16.3731 10.5822 16.4111C9.8392 16.8078 9.09619 17.204 8.35319 17.5995C7.80033 17.8936 7.24601 18.1844 6.69374 18.4793C5.67719 19.022 4.66171 19.5663 3.64731 20.112C3.02318 20.446 2.39788 20.7771 1.77405 21.1117C1.31974 21.354 0.868071 21.6013 0.415227 21.8468C0.373286 21.8694 0.329879 21.8891 0.271221 21.9182Z" fill="white"/>
<path d="M7.07657 17.2322C6.58413 17.5083 6.09521 17.7909 5.59867 18.059C5.03408 18.3645 4.47096 18.6747 3.89141 18.9494C3.62136 19.0779 3.33182 19.1604 3.03471 19.1934C2.53024 19.2454 2.21965 19.0217 2.08854 18.4742C2.01463 18.1649 2.00378 17.8406 1.96477 17.523C1.95598 17.4513 1.94806 17.3792 1.93896 17.3016C1.97533 17.2987 2.00877 17.2937 2.0422 17.2934C3.23444 17.2831 4.42667 17.2778 5.61861 17.2613C6.06148 17.2555 6.50377 17.2243 6.94635 17.2049C6.99005 17.2031 7.03433 17.2049 7.07774 17.2049L7.07657 17.2322Z" fill="white"/>
<path d="M5.55762 24.75H9.86344C9.65814 25.1875 9.48832 25.6009 9.27686 25.9926C9.0129 26.4801 8.42631 26.7432 7.84706 26.6515C7.4747 26.5978 7.132 26.4176 6.87626 26.141C6.73753 25.9961 6.59323 25.857 6.45157 25.715C6.29965 25.5627 6.14362 25.4139 5.99726 25.2563C5.8556 25.104 5.72362 24.9423 5.55762 24.75Z" fill="white"/>
<path d="M20.0203 21.7079C21.397 21.2272 22.7499 21.2604 24.1331 21.7744C23.9319 21.9131 23.7574 22.0443 23.5726 22.1589C23.0981 22.453 22.5986 22.6953 22.0545 22.8329C21.5794 22.9531 21.116 22.9467 20.7054 22.6391C20.5832 22.5437 20.4762 22.4303 20.3881 22.3027C20.2596 22.1204 20.152 21.9226 20.0203 21.7079Z" fill="white"/>
<path d="M13.9312 25.5239C13.9268 25.1416 14.3213 24.4895 14.6371 24.3836C14.604 24.4986 14.5832 24.5977 14.5468 24.6903C14.4972 24.8173 14.5099 24.9214 14.6105 25.0205C14.6718 25.0811 14.7017 25.1805 14.7697 25.2263C14.8577 25.2851 14.9709 25.3072 15.0733 25.3439L15.124 25.2913C15.0894 25.2093 15.0759 25.104 15.0164 25.049C14.7788 24.8306 14.8301 24.5068 15.1428 24.4107C15.2965 24.3636 15.4672 24.3751 15.6291 24.3519C15.8314 24.3225 15.9716 24.421 16.0951 24.5633C16.1555 24.6333 16.1787 24.7035 16.1174 24.7841C16.0212 24.9101 15.9248 25.0361 15.8282 25.1619C15.7842 25.2207 15.7109 25.2704 15.6994 25.3336C15.6684 25.4898 15.5716 25.4948 15.4455 25.4959C14.9823 25.5001 14.5189 25.5133 14.0558 25.523C14.0192 25.5248 13.9799 25.5239 13.9312 25.5239Z" fill="white"/>
<path d="M8.40075 22.2383C8.41659 22.2677 8.43008 22.2921 8.44357 22.318C8.44543 22.327 8.44543 22.3363 8.44357 22.3453C8.438 22.3547 8.43507 22.3665 8.42803 22.3697C8.14725 22.491 7.86598 22.6121 7.58423 22.7328C7.51178 22.764 7.46368 22.8063 7.47688 22.8978C7.50034 23.0621 7.41558 23.1801 7.28565 23.258C7.02169 23.4156 6.73661 23.4891 6.43511 23.405C6.36384 23.3853 6.265 23.305 6.25913 23.245C6.25092 23.1568 6.30518 23.0557 6.35298 22.9716C6.36853 22.9442 6.45857 22.9295 6.49406 22.9481C6.67561 23.043 6.67326 23.0477 6.79322 22.8784C6.92344 22.894 7.00351 23.1333 7.17684 22.9666C7.16482 22.7837 7.09677 22.719 6.87182 22.6876L6.83574 22.5699C7.02785 22.427 7.13432 22.4303 7.32408 22.5529C7.35296 22.5694 7.38483 22.5799 7.41782 22.5838C7.45081 22.5877 7.48425 22.585 7.51618 22.5758C7.81241 22.472 8.10482 22.3532 8.40075 22.2383Z" fill="white"/>
<path d="M23.0168 21.0925C22.8482 21.0661 22.7121 21.0481 22.5769 21.0211C22.5546 21.0167 22.5314 20.9755 22.5232 20.947C22.4423 20.6682 22.3648 20.3883 22.2848 20.109C22.2647 20.056 22.2513 20.0007 22.2449 19.9443C22.5525 20.2807 22.8183 20.6412 23.0168 21.0925Z" fill="white"/>
<path d="M21.5625 21.0209L21.1895 21.0667L21.5194 19.8906L21.5637 19.8936C21.6338 20.259 21.5179 20.6298 21.5625 21.0209Z" fill="white"/>
<path d="M21.3161 19.863C21.2334 20.1191 21.1542 20.3763 21.0671 20.6307C21.019 20.7706 20.9709 20.9144 20.8959 21.0403C20.8574 21.1049 20.7595 21.1341 20.6885 21.1793L20.6694 21.1429L21.261 19.8418L21.3161 19.863Z" fill="white"/>
<path d="M21.759 21.0038L21.8975 20.1191L21.9206 20.1152C21.9297 20.1964 21.9394 20.2772 21.9479 20.3584C21.9638 20.5072 21.9887 20.6562 21.991 20.8053C21.9934 20.9544 21.8866 21.0305 21.759 21.0038Z" fill="white"/>
<path d="M6.2198 21.9463C6.23827 22.0724 6.26731 22.1983 6.26995 22.3247C6.26995 22.3709 6.20895 22.4179 6.1758 22.4647C6.1412 22.4091 6.07286 22.3497 6.07872 22.2991C6.09251 22.1815 6.14208 22.066 6.17727 21.9495L6.2198 21.9463Z" fill="white"/>
<path d="M24.8304 10.3515C25.1806 10.3762 25.4709 10.3974 25.7616 10.4174C25.8789 10.4253 26.0203 10.3204 26.0352 10.2089C26.049 10.1051 25.9766 10.0913 25.8962 10.0884C25.707 10.0787 25.5184 10.0649 25.3096 10.0513C25.3096 9.85375 25.3061 9.6594 25.3096 9.46534C25.3159 9.1866 25.3257 8.90806 25.339 8.62971C25.341 8.58708 25.3592 8.52033 25.3882 8.50798C25.768 8.34627 26.1596 8.24806 26.5417 8.48035C26.8265 8.65353 26.994 8.93991 27.0873 9.24864C27.253 9.79759 27.3967 10.3542 27.5313 10.912C27.6659 11.4697 27.778 12.0343 27.8997 12.5962C28.0249 13.1748 28.0971 13.7602 28.0581 14.3518C28.0387 14.6591 27.9883 14.966 27.7747 15.2192C27.5914 15.4347 27.3512 15.4735 27.1002 15.435C26.3159 15.3147 25.5331 15.1824 24.7506 15.0528C24.1978 14.9601 23.6469 14.8537 23.0932 14.7681C22.5298 14.6799 21.9667 14.5988 21.4253 14.4118C21.024 14.273 20.6477 14.0828 20.3383 13.7896C19.7972 13.2765 19.7233 12.6159 20.1198 11.9811C20.436 11.4762 20.9 11.1351 21.3989 10.8343C22.182 10.3639 22.9659 9.89492 23.7508 9.42741L23.8757 9.35214V10.0578C23.7253 10.0684 23.5906 10.079 23.456 10.0872C23.3317 10.0949 23.2912 10.1569 23.349 10.2636C23.3968 10.3518 23.4622 10.4268 23.5757 10.4198C23.8226 10.4039 24.0696 10.3845 24.333 10.3654C24.354 10.5486 24.3206 10.7341 24.2371 10.8984C24.1892 10.9984 23.9619 11.0255 23.8355 10.9699C23.7751 10.9434 23.7097 10.9146 23.6464 10.9146C23.6199 10.916 23.5942 10.9233 23.571 10.936C23.5478 10.9487 23.5277 10.9666 23.5123 10.9881C23.498 11.014 23.5381 11.1057 23.5689 11.1154C23.8379 11.191 23.7684 11.4095 23.7449 11.5756C23.6862 12.0007 23.6044 12.4233 23.5129 12.8428C23.4795 12.9957 23.4032 13.1425 23.3284 13.2821C23.1475 13.6191 23.2234 13.8381 23.5988 13.9337C23.9523 14.0237 24.3139 14.0845 24.6744 14.1433C25.1237 14.2165 25.5595 14.1289 25.9883 13.9963C26.0336 13.9807 26.0777 13.9615 26.12 13.939C26.3576 13.8214 26.384 13.7608 26.2854 13.5223C26.1027 13.0813 25.9109 12.6429 25.7331 12.1992C25.6292 11.9368 25.5828 11.655 25.597 11.373C25.6012 11.2757 25.6264 11.2178 25.7243 11.1942C25.8317 11.1689 25.8631 11.0896 25.8279 10.9931C25.7927 10.8967 25.7035 10.8955 25.619 10.9199C25.5732 10.9355 25.5295 10.9566 25.4888 10.9828C25.27 11.111 25.0923 11.0784 24.9794 10.8529C24.9078 10.7103 24.8843 10.5403 24.8304 10.3515Z" fill="white"/>
<path d="M21.5377 8.75658C21.6057 8.55664 21.6711 8.37434 21.7283 8.19028C21.7518 8.11413 21.7022 8.07267 21.6313 8.06149C21.3943 8.02121 21.1576 7.97505 20.9191 7.94565C20.7669 7.92683 20.5965 7.74982 20.6552 7.61575C20.6845 7.54841 20.7995 7.51343 20.881 7.47579C20.9203 7.45785 20.9722 7.46756 20.9925 7.46638C20.8705 7.33054 20.7399 7.19176 20.6171 7.0468C20.5203 6.93213 20.539 6.89979 20.6713 6.82187C20.7828 6.75542 20.8798 6.66515 20.9828 6.58665C21.0684 6.64692 21.1635 6.7316 21.2731 6.786C21.3638 6.82864 21.4625 6.85139 21.5626 6.85274C21.7324 6.85431 21.902 6.84508 22.0706 6.8251C22.378 6.79188 22.6273 6.42434 22.5469 6.1309C22.5375 6.09709 22.4938 6.0721 22.466 6.04416C22.4421 6.07514 22.4223 6.10915 22.4073 6.14531C22.3962 6.19706 22.3896 6.2497 22.3877 6.30262C22.378 6.40729 22.3102 6.42728 22.2231 6.41346C22.0471 6.38406 21.8712 6.36083 21.6993 6.32526C21.5468 6.29291 21.406 6.23293 21.3248 6.08386C21.2943 6.03408 21.2584 5.98783 21.2177 5.94596C21.0678 5.77836 21.0799 5.63164 21.2579 5.47757C21.301 5.49834 21.3457 5.51555 21.3916 5.52903C21.4383 5.53902 21.4881 5.53491 21.5148 5.56372C21.5679 5.62018 21.6122 5.6928 21.6767 5.72779C21.7187 5.75043 21.7902 5.71897 21.8498 5.6881C21.7409 5.65075 21.6119 5.66193 21.6292 5.49227C21.6292 5.47845 21.5491 5.45023 21.5034 5.43964C21.4601 5.432 21.4162 5.42797 21.3723 5.42759C21.3943 5.29792 21.4292 5.18766 21.4248 5.07916C21.4224 5.02536 21.3567 4.96155 21.3039 4.92509C21.1599 4.82395 20.9039 4.86011 20.7936 4.99978C20.7323 5.0774 20.6581 5.17296 20.6566 5.26146C20.6566 5.34085 20.7446 5.422 20.8033 5.51521C20.7769 5.51727 20.7385 5.53197 20.7103 5.52079C20.4285 5.4073 20.1325 5.41877 19.8378 5.41406C19.7757 5.41672 19.7139 5.40325 19.6586 5.37496C19.5706 5.31968 19.5336 5.24353 19.6307 5.15208C19.6827 5.09712 19.7311 5.03889 19.7756 4.97772C19.6908 4.87452 19.6246 4.92921 19.5703 4.98302C19.4917 5.06123 19.4043 5.14003 19.3556 5.23647C19.3263 5.29527 19.3401 5.39877 19.3709 5.46522C19.4181 5.57105 19.4846 5.66708 19.5671 5.74837C19.6178 5.7963 19.7114 5.81306 19.787 5.81659C19.9821 5.8257 20.178 5.81953 20.4059 5.81953C20.2375 6.07298 19.8964 6.21117 20.0384 6.56195C19.9504 6.7269 19.8495 6.88538 19.7829 7.05621C19.7449 7.15792 19.74 7.26908 19.7688 7.37376C19.8167 7.52724 19.7862 7.66162 19.7469 7.80451C19.6553 8.13677 19.5682 8.47019 19.4732 8.82568H17.9941L17.9962 8.88213C19.218 8.9524 20.4422 8.89066 21.6741 8.95211C21.5488 9.02708 21.4271 9.10941 21.2975 9.17586C20.6649 9.50106 20.0284 9.81979 19.323 9.95945C18.8687 10.0494 18.4109 10.0932 17.9619 9.94004C17.5281 9.79303 17.2811 9.48606 17.2102 9.02326C17.1401 8.56811 17.2712 8.15 17.4102 7.73453C17.7014 6.8645 18.01 5.99977 18.3053 5.13209C18.4555 4.69105 18.5769 4.23971 18.8236 3.8366C19.0289 3.50199 19.2867 3.23355 19.6847 3.16651C19.9918 3.11476 20.3023 3.14857 20.6071 3.22267C21.6069 3.46495 22.5117 3.90922 23.3347 4.5208C23.716 4.80483 24.0618 5.13238 24.3075 5.5499C24.6965 6.20911 24.6126 6.85216 24.016 7.33907C23.5517 7.71807 23.0414 8.04032 22.5496 8.3861C22.4202 8.47725 22.2762 8.55076 22.1568 8.65308C21.9565 8.82362 21.7327 8.75599 21.5377 8.75658Z" fill="white"/>
<path d="M24.0358 10.0593C24.0358 9.79962 24.034 9.55705 24.0381 9.31448C24.0393 9.29622 24.0443 9.27842 24.0529 9.26229C24.0615 9.24616 24.0735 9.23207 24.088 9.22098C24.437 9.01721 24.7884 8.81786 25.1614 8.60352C25.1614 8.98575 25.1614 9.33859 25.1614 9.69466C25.1614 10.0581 25.1614 10.0581 24.7995 10.0581L24.0358 10.0593Z" fill="white"/>
<path d="M25.5271 12.0094C25.4785 11.9701 25.427 11.9345 25.3731 11.9029C25.2851 11.8594 25.1596 11.9323 25.1584 12.0267C25.1584 12.0679 25.1845 12.1308 25.2171 12.1443C25.2496 12.1579 25.3007 12.1223 25.3505 12.1061C25.4253 12.1884 25.4171 12.414 25.3232 12.5289C25.2464 12.623 25.0443 12.6606 24.9513 12.5789C24.9056 12.5389 24.8839 12.4563 24.8792 12.391C24.8774 12.3646 24.9496 12.3322 24.9883 12.3028C25.003 12.3863 24.9968 12.4498 25.0258 12.4831C25.0461 12.5057 25.1414 12.503 25.1558 12.4807C25.1895 12.4292 25.2191 12.3531 25.2059 12.2975C25.1687 12.1396 25.0273 12.1058 24.8288 12.1752C24.7868 12.1899 24.6991 12.1655 24.6798 12.1317C24.6449 12.0711 24.641 11.9879 24.7129 11.9738C24.7909 12.0276 24.8487 12.1002 24.898 12.0946C25.0206 12.0814 25.0475 11.9564 24.9587 11.8682C24.92 11.8303 24.8721 11.8032 24.8197 11.7895C24.7673 11.7759 24.7123 11.7762 24.6601 11.7905C24.6079 11.8048 24.5603 11.8325 24.5221 11.8709C24.4839 11.9093 24.4563 11.957 24.4422 12.0094C24.2266 11.98 24.1284 12.0267 24.0847 12.1814C24.0553 12.2902 24.131 12.4266 24.2425 12.4345C24.29 12.4378 24.341 12.3937 24.3891 12.3713C24.3627 12.334 24.3372 12.296 24.3093 12.2599C24.2966 12.2466 24.2826 12.2347 24.2674 12.2243L24.2794 12.1784C24.3363 12.1926 24.4111 12.1887 24.4466 12.2243C24.5231 12.301 24.4979 12.4486 24.4111 12.5045C24.2797 12.5886 24.1448 12.5736 24.0105 12.5083C23.8867 12.4495 23.8172 12.3507 23.8128 12.2117C23.8034 11.9129 23.9181 11.6854 24.1908 11.5448C24.5586 11.3552 25.1223 11.4301 25.3901 11.7195C25.462 11.7971 25.5033 11.9023 25.5588 11.995L25.5271 12.0094ZM24.3246 11.6021L24.1949 11.7492C24.2389 11.7841 24.2829 11.8474 24.3272 11.8462C24.3715 11.845 24.4123 11.7797 24.4548 11.7424L24.3246 11.6021Z" fill="white"/>
<path d="M21.3266 8.7372C20.9685 8.7372 20.6177 8.73544 20.267 8.7372C20.1807 8.7372 20.0945 8.76396 20.0089 8.76073C19.9429 8.75808 19.8657 8.74426 19.8159 8.70574C19.7452 8.65135 19.7681 8.57137 19.8103 8.49816C19.9074 8.32998 20.0007 8.15944 20.1168 7.95215C20.1573 8.10328 20.1787 8.20854 20.2136 8.30881C20.2629 8.44964 20.333 8.47052 20.4743 8.43494C20.745 8.36614 21.0207 8.3138 21.2999 8.37878C21.4307 8.40819 21.451 8.47993 21.3859 8.59695C21.3637 8.64265 21.344 8.68946 21.3266 8.7372Z" fill="white"/>
<path d="M13.6991 9.27326C13.1711 9.25385 12.7825 9.11331 12.4414 8.82163C12.0728 8.50643 11.8455 8.09127 11.6047 7.68551C11.1263 6.88016 10.6576 6.06658 10.1772 5.26095C10.0385 5.02778 10.1479 4.76316 10.4072 4.56351C10.9961 4.10953 11.6859 3.86019 12.3722 3.60998C13.2492 3.29095 14.1223 2.95811 15.0368 2.76376C15.355 2.69584 15.682 2.67261 16.0046 2.62145C16.293 2.57588 16.5686 2.62145 16.842 2.70966C17.1705 2.81463 17.3784 3.18187 17.2784 3.51677C17.1212 4.04396 16.9499 4.56733 16.7798 5.0907C16.5249 5.874 16.3056 6.67199 15.9982 7.43411C15.6589 8.27591 15.069 8.90925 14.1701 9.18593C13.9924 9.23945 13.8026 9.25474 13.6991 9.27326ZM14.0452 5.59085C13.8932 5.59085 13.7519 5.58791 13.6108 5.59085C13.4055 5.59584 13.2632 5.71875 13.2615 5.90134C13.2602 5.94028 13.2666 5.97909 13.2803 6.01554C13.2941 6.052 13.3148 6.0854 13.3414 6.11382C13.368 6.14224 13.3999 6.16514 13.4353 6.1812C13.4707 6.19726 13.5089 6.20617 13.5477 6.20742C13.6756 6.21624 13.8052 6.20184 13.9334 6.21125C13.9795 6.21448 14.0214 6.25653 14.0669 6.28093C14.0284 6.30563 13.9924 6.34503 13.9495 6.35238C13.8011 6.37884 13.6932 6.42324 13.7149 6.6123C13.7202 6.65523 13.646 6.71756 13.5958 6.75285C13.5762 6.76667 13.5169 6.73609 13.4844 6.71345C13.4754 6.70328 13.469 6.69103 13.4659 6.67778C13.4628 6.66454 13.463 6.65073 13.4665 6.63759C13.4738 6.61818 13.5073 6.60524 13.5316 6.59672C13.5626 6.58789 13.5941 6.58121 13.626 6.57672C13.6108 6.53879 13.6032 6.47558 13.5785 6.46793C13.5114 6.44735 13.4292 6.42795 13.3671 6.44941C13.2671 6.48352 13.2248 6.58231 13.2371 6.68463C13.2591 6.86869 13.3838 6.98454 13.6328 6.97278C13.8126 6.96425 13.9097 6.87516 13.9261 6.68522C13.9287 6.65582 13.9231 6.62171 13.9372 6.59966C13.9455 6.58868 13.9562 6.57979 13.9686 6.57372C13.9809 6.56764 13.9945 6.56454 14.0082 6.56467C14.0207 6.56816 14.0321 6.5748 14.0414 6.58396C14.0506 6.59312 14.0574 6.6045 14.061 6.61701C14.0654 6.76079 14.0633 6.90486 14.0633 7.05952C13.8894 7.05952 13.7431 7.05599 13.5973 7.05952C13.4023 7.0654 13.2644 7.18683 13.2571 7.36501C13.2512 7.50468 13.3677 7.67757 13.5536 7.67668C13.692 7.67668 13.8305 7.6711 13.9683 7.67963C14.002 7.68168 14.0328 7.7299 14.0648 7.75695C14.0365 7.78216 14.0051 7.80352 13.9712 7.82046C13.9419 7.83134 13.9035 7.82046 13.8695 7.8234C13.4589 7.86045 13.2691 8.10185 13.3644 8.48438H14.7379V7.16419C14.7 7.18145 14.6608 7.1957 14.6206 7.20683C14.474 7.23476 14.4426 7.32444 14.4502 7.46528C14.4634 7.71755 14.454 7.97101 14.454 8.22975H13.614C13.6348 8.19123 13.6463 8.14154 13.6665 8.13713C13.8859 8.09538 14.1065 8.06098 14.3279 8.02452V5.45206H14.7385C14.7804 5.09335 14.6476 4.84931 14.3713 4.8052C14.2332 4.78256 14.0886 4.8005 13.9469 4.79815C13.7246 4.79462 13.4958 4.83372 13.2896 4.68465C13.3105 4.78168 13.3125 4.86842 13.3483 4.93722C13.3776 4.99015 13.4463 5.05483 13.4985 5.05483C13.7604 5.05807 14.0226 5.04542 14.2845 5.03131C14.4071 5.02484 14.4575 5.08717 14.4857 5.20773H13.4551L13.5058 5.44883C13.6187 5.4406 13.7343 5.43295 13.8498 5.42354C13.9583 5.41502 14.0449 5.43236 14.0452 5.59114V5.59085ZM14.2073 4.29712C14.1463 4.42502 14.0548 4.45413 13.9727 4.40944C13.9141 4.37798 13.8654 4.29565 13.8472 4.22685C13.8088 4.0813 13.9223 3.99898 14.0106 3.909C14.1399 3.77728 14.1452 3.65055 14.0543 3.54441C13.9924 3.64291 13.9305 3.75258 13.8575 3.85461C13.8011 3.93311 13.7255 3.9978 13.6686 4.07601C13.5741 4.20627 13.5988 4.34064 13.6782 4.46825C13.7636 4.60379 13.9481 4.66495 14.132 4.61879C14.2675 4.58468 14.3786 4.49412 14.388 4.35798C14.3939 4.27536 14.3294 4.1654 14.264 4.106C14.2458 4.08971 14.2246 4.07728 14.2015 4.06946C14.1785 4.06165 14.154 4.05861 14.1298 4.06053C14.1055 4.06246 14.0819 4.06931 14.0603 4.08066C14.0388 4.09201 14.0197 4.10764 14.0044 4.12658C13.9774 4.15599 13.9569 4.22538 13.9733 4.2536C13.9897 4.28183 14.0543 4.28712 14.0988 4.29624C14.1349 4.29943 14.1712 4.29953 14.2073 4.29653V4.29712Z" fill="white"/>
<path d="M6.70566 6.96324C6.67017 7.07115 6.62794 7.17729 6.60154 7.28667C6.58189 7.3687 6.61914 7.43368 6.71094 7.44103C6.80274 7.44839 6.79306 7.37605 6.80655 7.31284C6.82577 7.24092 6.85406 7.17176 6.89073 7.10702C6.9268 7.03586 6.96053 6.96 7.01391 6.9012C7.05849 6.85357 7.12918 6.80417 7.18989 6.80299C7.32773 6.80064 7.44593 6.90649 7.44564 7.02704C7.44564 7.13083 7.41631 7.23521 7.39578 7.33842C7.36645 7.47896 7.32685 7.61745 7.30456 7.75888C7.28139 7.90589 7.17698 7.8515 7.10102 7.84709C6.96229 7.83768 6.82444 7.81327 6.6863 7.79652C6.66788 7.79714 6.64959 7.7998 6.63175 7.80445C6.64671 7.92207 6.66636 8.02027 6.82268 8.00263C6.94727 7.98653 7.07277 7.97857 7.19839 7.97881C7.23359 7.97881 7.29811 8.03321 7.29782 8.06202C7.29577 8.35017 7.28638 8.63832 7.26849 8.92558C7.26614 8.9644 7.20836 9.00409 7.16994 9.03585C6.82855 9.31958 6.48247 9.59803 6.14547 9.88853C6.06804 9.95498 5.9695 10.0355 6.0308 10.1967L7.24415 9.54687C7.24415 9.70006 7.25206 9.83149 7.23916 9.96057C7.23564 9.99673 7.17376 10.0502 7.13357 10.0552C7.0263 10.0651 6.91842 10.0664 6.81095 10.0591C6.72766 10.0564 6.68982 10.0817 6.68454 10.1746C6.65199 10.7574 6.57661 11.3343 6.42909 11.9003C6.42146 11.9439 6.41685 11.988 6.4153 12.0323C6.26543 12.0102 6.11908 11.9929 5.97536 11.9667C5.39494 11.8618 4.81363 11.7609 4.23555 11.6433C4.01626 11.5957 3.80153 11.529 3.59383 11.4439C3.18322 11.2813 3.09523 10.9232 3.27443 10.5654C3.43838 10.2399 3.64075 9.93146 3.84958 9.63213C4.11354 9.25225 4.40038 8.88707 4.68312 8.52012C4.84531 8.30959 5.01219 8.10142 5.18993 7.90266C5.65538 7.38517 6.14518 6.89208 6.72883 6.50573C6.99279 6.32931 7.26937 6.16907 7.58759 6.11203C8.04073 6.03087 8.38329 6.10526 8.69301 6.52367C9.14145 7.12878 9.60046 7.72624 10.0498 8.33076C10.3724 8.76328 10.7094 9.18962 10.834 9.7321C11.0039 10.4722 10.8074 11.1773 10.1648 11.6806C9.721 12.0282 9.21155 12.1731 8.66251 12.2393C8.23723 12.2902 7.8234 12.2325 7.40634 12.1778C7.27128 12.1644 7.13738 12.1411 7.0057 12.1081C7.4562 12.092 7.90552 12.167 8.3698 12.0787L7.95714 10.0605C7.86358 10.0605 7.72251 10.0544 7.58495 10.0623C7.46763 10.0691 7.44153 10.0138 7.45033 9.91205C7.46294 9.76504 7.46588 9.61979 7.48201 9.47483C7.48492 9.45324 7.49214 9.43246 7.50322 9.41372C7.51431 9.39498 7.52903 9.37867 7.54653 9.36575C7.96359 9.11847 8.38329 8.87619 8.80212 8.63067C8.84288 8.60686 8.88013 8.57657 8.91943 8.54952C8.88161 8.49008 8.82699 8.44326 8.76254 8.41504C8.69809 8.38681 8.62671 8.37846 8.55751 8.39104C8.17418 8.44749 7.84628 8.63861 7.4691 8.83767C7.52336 8.56452 7.3861 8.29548 7.63305 8.08437C7.66854 8.05497 7.65593 7.96676 7.67059 7.87502C7.80785 7.87502 7.95391 7.87502 8.10027 7.87502C8.15893 7.87502 8.23899 7.90442 8.26979 7.87502C8.32434 7.82504 8.34898 7.74183 8.38711 7.67244C8.33989 7.6642 8.29149 7.64509 8.24574 7.64979C8.08269 7.66275 7.92046 7.68454 7.75975 7.71507C7.65153 7.738 7.66883 7.70566 7.67763 7.62274C7.70022 7.40928 7.73922 7.18846 7.70696 6.98029C7.6571 6.65245 7.34475 6.50838 7.02828 6.62069C6.89278 6.66892 6.7784 6.72831 6.63527 6.61452C6.78426 6.71978 6.73587 6.84445 6.70742 6.96588L6.70566 6.96324Z" fill="white"/>
<path d="M8.04942 11.8524C7.6262 11.8524 7.23436 11.8547 6.84282 11.85C6.77624 11.85 6.73694 11.8206 6.76011 11.7248C6.79296 11.5898 6.7909 11.446 6.80351 11.3061C6.83284 10.9782 6.85924 10.6498 6.89678 10.3229C6.90059 10.2896 6.97304 10.2402 7.0141 10.2402C7.18333 10.2402 7.35226 10.2614 7.52179 10.2641C7.81127 10.2688 7.79719 10.267 7.83414 10.564C7.87051 10.8539 7.94237 11.1394 7.99369 11.4275C8.01716 11.5598 8.02889 11.6939 8.04942 11.8524ZM7.40623 10.6175C7.13845 10.6175 6.95133 10.8027 6.95045 11.0679C6.95045 11.3184 7.13464 11.4996 7.39039 11.4993C7.44581 11.4984 7.50049 11.4864 7.55121 11.464C7.60193 11.4416 7.64768 11.4092 7.68574 11.3689C7.72381 11.3285 7.75344 11.2809 7.77288 11.2288C7.79232 11.1768 7.80119 11.1214 7.79895 11.0659C7.79103 10.7742 7.64585 10.5957 7.40594 10.6184L7.40623 10.6175Z" fill="white"/>
<path d="M7.4959 9.25764C7.45543 9.10739 7.49091 9.04271 7.60295 8.99478C7.83524 8.8954 8.05873 8.77543 8.28896 8.67135C8.33149 8.65224 8.39015 8.6687 8.44118 8.6687L8.45966 8.73074L7.4959 9.25764Z" fill="white"/>
<path d="M6.39355 9.82049L7.22093 9.22949L7.26434 9.24919C7.24792 9.30329 7.2485 9.38621 7.21272 9.40738C6.95022 9.56174 6.68069 9.70405 6.4135 9.85019L6.39355 9.82049Z" fill="white"/>
<path d="M6.70386 6.96902C6.76728 6.84185 6.84627 6.82183 6.9699 6.95695C6.91704 6.99463 6.87153 7.04791 6.81926 7.05586C6.78696 7.06086 6.74409 6.99698 6.70562 6.9646L6.70386 6.96902Z" fill="white"/>
<path d="M8.85767 19.9714C9.07265 19.98 9.2715 19.9356 9.39615 19.7583C9.47241 19.6498 9.50672 19.5119 9.56157 19.3878C9.57858 19.3493 9.60204 19.3134 9.62257 19.2764C9.65894 19.3058 9.71291 19.3302 9.72933 19.369C9.87422 19.7151 9.60322 20.0994 9.20903 20.1135C8.98701 20.1217 8.92776 20.0996 8.85767 19.9714Z" fill="white"/>
<path d="M4.99301 14.8278H3.84595C4.30436 14.4796 4.53489 14.4737 4.99301 14.8278Z" fill="white"/>
<path d="M7.00972 14.9817C6.81527 14.9817 6.6742 14.8347 6.67654 14.638C6.67889 14.4468 6.82495 14.2869 7.015 14.2963C7.21767 14.3066 7.38748 14.4066 7.39012 14.615C7.391 14.802 7.20124 14.9817 7.00972 14.9817Z" fill="white"/>
<path d="M13.8393 7.48277C13.7641 7.47543 13.6897 7.46206 13.6167 7.44278C13.5873 7.43308 13.5727 7.38133 13.5513 7.34869C13.5824 7.33134 13.6126 7.30077 13.6445 7.299C13.7556 7.29096 13.8672 7.29096 13.9783 7.299C14.0109 7.30194 14.0396 7.35016 14.0701 7.37751C14.0375 7.40867 14.0097 7.4516 13.9707 7.46777C13.9317 7.48395 13.885 7.47101 13.8413 7.47101L13.8393 7.48277Z" fill="white"/>
<path d="M14.0316 6.0021C13.9228 6.0021 13.8146 6.01445 13.7117 5.99739C13.653 5.98769 13.6037 5.92947 13.55 5.89301C13.6011 5.87067 13.6501 5.83685 13.7031 5.82921C13.7791 5.81833 13.858 5.82921 13.9351 5.82539C14.0727 5.81627 14.1017 5.87184 14.0316 6.0021Z" fill="white"/>
</g>
<defs>
<clipPath id="clip0_891_14594">
<rect width="30" height="27.1765" fill="white" transform="translate(0 0.412109)"/>
</clipPath>
</defs>
</svg>
