<svg width="20" height="18" viewBox="0 0 20 18" fill="none" xmlns="http://www.w3.org/2000/svg">
<path fill-rule="evenodd" clip-rule="evenodd" d="M9.99315 2.13581C7.9938 -0.2016 4.65975 -0.830357 2.15469 1.31001C-0.350356 3.45038 -0.703032 7.02898 1.2642 9.5604C2.89982 11.6651 7.84977 16.1041 9.4721 17.5408C9.6536 17.7016 9.74436 17.7819 9.85021 17.8135C9.9426 17.8411 10.0437 17.8411 10.1361 17.8135C10.2419 17.7819 10.3327 17.7016 10.5142 17.5408C12.1365 16.1041 17.0865 11.6651 18.7221 9.5604C20.6893 7.02898 20.3797 3.42787 17.8316 1.31001C15.2835 -0.807843 11.9925 -0.2016 9.99315 2.13581Z" fill="#012E93"/>
</svg>
