<svg width="13" height="19" viewBox="0 0 13 19" fill="none" xmlns="http://www.w3.org/2000/svg">
<path d="M6.35993 0.960938C2.8526 0.960938 0 3.81493 0 7.32087C0 10.6142 4.76047 14.1775 6.1368 18.5774C6.16637 18.6724 6.25515 18.7371 6.3547 18.7364C6.4546 18.7351 6.54196 18.6696 6.57017 18.5739C7.90543 14.0658 12.7195 10.618 12.7198 7.32019C12.7195 3.81493 9.86655 0.960938 6.35993 0.960938ZM6.35993 12.1454C3.61005 12.1454 1.37252 9.90751 1.37252 7.15795C1.37252 4.40806 3.61005 2.17053 6.35993 2.17053C9.10915 2.17053 11.347 4.40806 11.347 7.15795C11.347 9.90751 9.10911 12.1454 6.35993 12.1454Z" fill="#14452F"/>
<circle cx="6.35855" cy="7.18668" r="5.04605" fill="#14452F"/>
<g clip-path="url(#clip0_916_3017)">
<path d="M6.83462 6.60938V8.57084H6.12891V6.60938H6.83462Z" fill="white"/>
<path d="M5.28382 6.60938V8.57084H4.57812V6.60938H5.28382Z" fill="white"/>
<path d="M8.38538 6.60938V8.57084H7.67969V6.60938H8.38538Z" fill="white"/>
<path fill-rule="evenodd" clip-rule="evenodd" d="M4.07812 5.97421L6.48167 4.45703L8.88521 5.97421H4.07812Z" fill="white"/>
<path d="M8.78647 6.07422H4.17969V6.50985H8.78647V6.07422Z" fill="white"/>
<path d="M8.68384 8.67188H4.27734V9.26424H8.68384V8.67188Z" fill="white"/>
</g>
<defs>
<clipPath id="clip0_916_3017">
<rect width="6.40944" height="6.40944" fill="white" transform="translate(2.91406 3.29297)"/>
</clipPath>
</defs>
</svg>
