<svg width="22" height="22" viewBox="0 0 22 22" fill="none" xmlns="http://www.w3.org/2000/svg">
<path d="M19.25 10.084L12.2887 3.12271C11.8131 2.6471 11.5753 2.40929 11.2978 2.23922C11.0517 2.08844 10.7835 1.97733 10.5029 1.90997C10.1864 1.83398 9.85008 1.83398 9.17746 1.83398L5.5 1.83398M2.75 7.97565L2.75 9.78562C2.75 10.234 2.75 10.4582 2.80066 10.6692C2.84557 10.8563 2.91964 11.0351 3.02016 11.1992C3.13354 11.3842 3.29208 11.5427 3.60915 11.8598L10.7592 19.0098C11.4852 19.7358 11.8482 20.0989 12.2668 20.2349C12.635 20.3545 13.0317 20.3545 13.3999 20.2349C13.8185 20.0989 14.1815 19.7358 14.9075 19.0098L17.1758 16.7415C17.9019 16.0155 18.2649 15.6525 18.4009 15.2338C18.5205 14.8656 18.5205 14.469 18.4009 14.1008C18.2649 13.6822 17.9019 13.3192 17.1758 12.5931L10.4842 5.90147C10.1671 5.58439 10.0085 5.42585 9.82352 5.31248C9.65949 5.21196 9.48066 5.13788 9.29359 5.09297C9.0826 5.04232 8.85839 5.04232 8.40997 5.04232H5.68333C4.65657 5.04232 4.14319 5.04232 3.75102 5.24214C3.40605 5.41791 3.12559 5.69837 2.94982 6.04334C2.75 6.43551 2.75 6.94889 2.75 7.97565Z" stroke="#F15E22" stroke-width="2" stroke-linecap="round" stroke-linejoin="round"/>
</svg>
